%!PS-Adobe-3.0 EPSF-3.0
%%Title: training_loss.eps
%%Creator: matplotlib version 3.3.4, http://matplotlib.org/
%%CreationDate: Wed Aug 25 16:52:06 2021
%%Orientation: portrait
%%BoundingBox: 75.6 223.20000000000002 536.4 568.8
%%EndComments
%%BeginProlog
/mpldict 8 dict def
mpldict begin
/m { moveto } bind def
/l { lineto } bind def
/r { rlineto } bind def
/c { curveto } bind def
/cl { closepath } bind def
/box {
      m
      1 index 0 r
      0 exch r
      neg 0 r
      cl
    } bind def
/clipbox {
      box
      clip
      newpath
    } bind def
%!PS-Adobe-3.0 Resource-Font
%%Title: DejaVu Sans
%%Copyright: Copyright (c) 2003 by Bitstream, Inc. All Rights Reserved. Copyright (c) 2006 by Tavmjong Bah. All Rights Reserved. DejaVu changes are in public domain 
%%Creator: Converted from TrueType to type 3 by PPR
25 dict begin
/_d{bind def}bind def
/_m{moveto}_d
/_l{lineto}_d
/_cl{closepath eofill}_d
/_c{curveto}_d
/_sc{7 -1 roll{setcachedevice}{pop pop pop pop pop pop}ifelse}_d
/_e{exec}_d
/FontName /DejaVuSans def
/PaintType 0 def
/FontMatrix[.001 0 0 .001 0 0]def
/FontBBox[-1021 -463 1793 1232]def
/FontType 3 def
/Encoding [ /space /zero /one /two /three /four /five /six /seven /eight /nine /E /T /underscore /a /b /c /d /e /f /g /h /i /l /m /n /o /p /r /s /t /u ] def
/FontInfo 10 dict dup begin
/FamilyName (DejaVu Sans) def
/FullName (DejaVu Sans) def
/Notice (Copyright (c) 2003 by Bitstream, Inc. All Rights Reserved. Copyright (c) 2006 by Tavmjong Bah. All Rights Reserved. DejaVu changes are in public domain ) def
/Weight (Book) def
/Version (Version 2.35) def
/ItalicAngle 0.0 def
/isFixedPitch false def
/UnderlinePosition -130 def
/UnderlineThickness 90 def
end readonly def
/CharStrings 33 dict dup begin
/.notdef 0 def
/space{318 0 0 0 0 0 _sc
}_d
/zero{636 0 66 -13 570 742 _sc
318 664 _m
267 664 229 639 203 589 _c
177 539 165 464 165 364 _c
165 264 177 189 203 139 _c
229 89 267 64 318 64 _c
369 64 407 89 433 139 _c
458 189 471 264 471 364 _c
471 464 458 539 433 589 _c
407 639 369 664 318 664 _c
318 742 _m
399 742 461 709 505 645 _c
548 580 570 486 570 364 _c
570 241 548 147 505 83 _c
461 19 399 -13 318 -13 _c
236 -13 173 19 130 83 _c
87 147 66 241 66 364 _c
66 486 87 580 130 645 _c
173 709 236 742 318 742 _c
_cl}_d
/one{636 0 110 0 544 729 _sc
124 83 _m
285 83 _l
285 639 _l
110 604 _l
110 694 _l
284 729 _l
383 729 _l
383 83 _l
544 83 _l
544 0 _l
124 0 _l
124 83 _l
_cl}_d
/two{{636 0 73 0 536 742 _sc
192 83 _m
536 83 _l
536 0 _l
73 0 _l
73 83 _l
110 121 161 173 226 239 _c
290 304 331 346 348 365 _c
380 400 402 430 414 455 _c
426 479 433 504 433 528 _c
433 566 419 598 392 622 _c
365 646 330 659 286 659 _c
255 659 222 653 188 643 _c
154 632 117 616 78 594 _c
78 694 _l
118 710 155 722 189 730 _c
223 738 255 742 284 742 _c
}_e{359 742 419 723 464 685 _c
509 647 532 597 532 534 _c
532 504 526 475 515 449 _c
504 422 484 390 454 354 _c
446 344 420 317 376 272 _c
332 227 271 164 192 83 _c
_cl}_e}_d
/three{{636 0 76 -13 556 742 _sc
406 393 _m
453 383 490 362 516 330 _c
542 298 556 258 556 212 _c
556 140 531 84 482 45 _c
432 6 362 -13 271 -13 _c
240 -13 208 -10 176 -4 _c
144 1 110 10 76 22 _c
76 117 _l
103 101 133 89 166 81 _c
198 73 232 69 268 69 _c
330 69 377 81 409 105 _c
441 129 458 165 458 212 _c
458 254 443 288 413 312 _c
383 336 341 349 287 349 _c
}_e{202 349 _l
202 430 _l
291 430 _l
339 430 376 439 402 459 _c
428 478 441 506 441 543 _c
441 580 427 609 401 629 _c
374 649 336 659 287 659 _c
260 659 231 656 200 650 _c
169 644 135 635 98 623 _c
98 711 _l
135 721 170 729 203 734 _c
235 739 266 742 296 742 _c
370 742 429 725 473 691 _c
517 657 539 611 539 553 _c
539 513 527 479 504 451 _c
481 423 448 403 406 393 _c
_cl}_e}_d
/four{636 0 49 0 580 729 _sc
378 643 _m
129 254 _l
378 254 _l
378 643 _l
352 729 _m
476 729 _l
476 254 _l
580 254 _l
580 172 _l
476 172 _l
476 0 _l
378 0 _l
378 172 _l
49 172 _l
49 267 _l
352 729 _l
_cl}_d
/five{{636 0 77 -13 549 729 _sc
108 729 _m
495 729 _l
495 646 _l
198 646 _l
198 467 _l
212 472 227 476 241 478 _c
255 480 270 482 284 482 _c
365 482 429 459 477 415 _c
525 370 549 310 549 234 _c
549 155 524 94 475 51 _c
426 8 357 -13 269 -13 _c
238 -13 207 -10 175 -6 _c
143 -1 111 6 77 17 _c
77 116 _l
106 100 136 88 168 80 _c
199 72 232 69 267 69 _c
}_e{323 69 368 83 401 113 _c
433 143 450 183 450 234 _c
450 284 433 324 401 354 _c
368 384 323 399 267 399 _c
241 399 214 396 188 390 _c
162 384 135 375 108 363 _c
108 729 _l
_cl}_e}_d
/six{{636 0 70 -13 573 742 _sc
330 404 _m
286 404 251 388 225 358 _c
199 328 186 286 186 234 _c
186 181 199 139 225 109 _c
251 79 286 64 330 64 _c
374 64 409 79 435 109 _c
461 139 474 181 474 234 _c
474 286 461 328 435 358 _c
409 388 374 404 330 404 _c
526 713 _m
526 623 _l
501 635 476 644 451 650 _c
425 656 400 659 376 659 _c
310 659 260 637 226 593 _c
}_e{192 549 172 482 168 394 _c
187 422 211 444 240 459 _c
269 474 301 482 336 482 _c
409 482 467 459 509 415 _c
551 371 573 310 573 234 _c
573 159 550 99 506 54 _c
462 9 403 -13 330 -13 _c
246 -13 181 19 137 83 _c
92 147 70 241 70 364 _c
70 479 97 571 152 639 _c
206 707 280 742 372 742 _c
396 742 421 739 447 735 _c
472 730 498 723 526 713 _c
_cl}_e}_d
/seven{636 0 82 0 551 729 _sc
82 729 _m
551 729 _l
551 687 _l
286 0 _l
183 0 _l
432 646 _l
82 646 _l
82 729 _l
_cl}_d
/eight{{636 0 68 -13 568 742 _sc
318 346 _m
271 346 234 333 207 308 _c
180 283 167 249 167 205 _c
167 161 180 126 207 101 _c
234 76 271 64 318 64 _c
364 64 401 76 428 102 _c
455 127 469 161 469 205 _c
469 249 455 283 429 308 _c
402 333 365 346 318 346 _c
219 388 _m
177 398 144 418 120 447 _c
96 476 85 511 85 553 _c
85 611 105 657 147 691 _c
188 725 245 742 318 742 _c
}_e{390 742 447 725 489 691 _c
530 657 551 611 551 553 _c
551 511 539 476 515 447 _c
491 418 459 398 417 388 _c
464 377 501 355 528 323 _c
554 291 568 251 568 205 _c
568 134 546 80 503 43 _c
459 5 398 -13 318 -13 _c
237 -13 175 5 132 43 _c
89 80 68 134 68 205 _c
68 251 81 291 108 323 _c
134 355 171 377 219 388 _c
183 544 _m
183 506 194 476 218 455 _c
}_e{242 434 275 424 318 424 _c
360 424 393 434 417 455 _c
441 476 453 506 453 544 _c
453 582 441 611 417 632 _c
393 653 360 664 318 664 _c
275 664 242 653 218 632 _c
194 611 183 582 183 544 _c
_cl}_e}_d
/nine{{636 0 63 -13 566 742 _sc
110 15 _m
110 105 _l
134 93 159 84 185 78 _c
210 72 235 69 260 69 _c
324 69 374 90 408 134 _c
442 178 462 244 468 334 _c
448 306 424 284 396 269 _c
367 254 335 247 300 247 _c
226 247 168 269 126 313 _c
84 357 63 417 63 494 _c
63 568 85 628 129 674 _c
173 719 232 742 306 742 _c
390 742 455 709 499 645 _c
543 580 566 486 566 364 _c
}_e{566 248 538 157 484 89 _c
429 21 356 -13 264 -13 _c
239 -13 214 -10 189 -6 _c
163 -2 137 5 110 15 _c
306 324 _m
350 324 385 339 411 369 _c
437 399 450 441 450 494 _c
450 546 437 588 411 618 _c
385 648 350 664 306 664 _c
262 664 227 648 201 618 _c
175 588 162 546 162 494 _c
162 441 175 399 201 369 _c
227 339 262 324 306 324 _c
_cl}_e}_d
/E{632 0 98 0 568 729 _sc
98 729 _m
559 729 _l
559 646 _l
197 646 _l
197 430 _l
544 430 _l
544 347 _l
197 347 _l
197 83 _l
568 83 _l
568 0 _l
98 0 _l
98 729 _l
_cl}_d
/T{611 0 -2 0 614 729 _sc
-2 729 _m
614 729 _l
614 646 _l
355 646 _l
355 0 _l
256 0 _l
256 646 _l
-2 646 _l
-2 729 _l
_cl}_d
/underscore{500 0 -9 -235 510 -165 _sc
510 -165 _m
510 -235 _l
-9 -235 _l
-9 -165 _l
510 -165 _l
_cl}_d
/a{{613 0 60 -13 522 560 _sc
343 275 _m
270 275 220 266 192 250 _c
164 233 150 205 150 165 _c
150 133 160 107 181 89 _c
202 70 231 61 267 61 _c
317 61 357 78 387 114 _c
417 149 432 196 432 255 _c
432 275 _l
343 275 _l
522 312 _m
522 0 _l
432 0 _l
432 83 _l
411 49 385 25 355 10 _c
325 -5 287 -13 243 -13 _c
187 -13 142 2 109 33 _c
76 64 60 106 60 159 _c
}_e{60 220 80 266 122 298 _c
163 329 224 345 306 345 _c
432 345 _l
432 354 _l
432 395 418 427 391 450 _c
364 472 326 484 277 484 _c
245 484 215 480 185 472 _c
155 464 127 453 100 439 _c
100 522 _l
132 534 164 544 195 550 _c
226 556 256 560 286 560 _c
365 560 424 539 463 498 _c
502 457 522 395 522 312 _c
_cl}_e}_d
/b{{635 0 91 -13 580 760 _sc
487 273 _m
487 339 473 390 446 428 _c
418 466 381 485 334 485 _c
286 485 249 466 222 428 _c
194 390 181 339 181 273 _c
181 207 194 155 222 117 _c
249 79 286 61 334 61 _c
381 61 418 79 446 117 _c
473 155 487 207 487 273 _c
181 464 _m
199 496 223 520 252 536 _c
281 552 316 560 356 560 _c
422 560 476 533 518 481 _c
559 428 580 359 580 273 _c
}_e{580 187 559 117 518 65 _c
476 13 422 -13 356 -13 _c
316 -13 281 -5 252 10 _c
223 25 199 49 181 82 _c
181 0 _l
91 0 _l
91 760 _l
181 760 _l
181 464 _l
_cl}_e}_d
/c{{550 0 55 -13 488 560 _sc
488 526 _m
488 442 _l
462 456 437 466 411 473 _c
385 480 360 484 334 484 _c
276 484 230 465 198 428 _c
166 391 150 339 150 273 _c
150 206 166 154 198 117 _c
230 80 276 62 334 62 _c
360 62 385 65 411 72 _c
437 79 462 90 488 104 _c
488 21 _l
462 9 436 0 410 -5 _c
383 -10 354 -13 324 -13 _c
242 -13 176 12 128 64 _c
}_e{79 115 55 185 55 273 _c
55 362 79 432 128 483 _c
177 534 244 560 330 560 _c
358 560 385 557 411 551 _c
437 545 463 537 488 526 _c
_cl}_e}_d
/d{{635 0 55 -13 544 760 _sc
454 464 _m
454 760 _l
544 760 _l
544 0 _l
454 0 _l
454 82 _l
435 49 411 25 382 10 _c
353 -5 319 -13 279 -13 _c
213 -13 159 13 117 65 _c
75 117 55 187 55 273 _c
55 359 75 428 117 481 _c
159 533 213 560 279 560 _c
319 560 353 552 382 536 _c
411 520 435 496 454 464 _c
148 273 _m
148 207 161 155 188 117 _c
215 79 253 61 301 61 _c
}_e{348 61 385 79 413 117 _c
440 155 454 207 454 273 _c
454 339 440 390 413 428 _c
385 466 348 485 301 485 _c
253 485 215 466 188 428 _c
161 390 148 339 148 273 _c
_cl}_e}_d
/e{{615 0 55 -13 562 560 _sc
562 296 _m
562 252 _l
149 252 _l
153 190 171 142 205 110 _c
238 78 284 62 344 62 _c
378 62 412 66 444 74 _c
476 82 509 95 541 113 _c
541 28 _l
509 14 476 3 442 -3 _c
408 -9 373 -13 339 -13 _c
251 -13 182 12 131 62 _c
80 112 55 181 55 268 _c
55 357 79 428 127 481 _c
175 533 241 560 323 560 _c
397 560 455 536 498 489 _c
}_e{540 441 562 377 562 296 _c
472 322 _m
471 371 457 410 431 440 _c
404 469 368 484 324 484 _c
274 484 234 469 204 441 _c
174 413 156 373 152 322 _c
472 322 _l
_cl}_e}_d
/f{352 0 23 0 371 760 _sc
371 760 _m
371 685 _l
285 685 _l
253 685 230 678 218 665 _c
205 652 199 629 199 595 _c
199 547 _l
347 547 _l
347 477 _l
199 477 _l
199 0 _l
109 0 _l
109 477 _l
23 477 _l
23 547 _l
109 547 _l
109 585 _l
109 645 123 690 151 718 _c
179 746 224 760 286 760 _c
371 760 _l
_cl}_d
/g{{635 0 55 -207 544 560 _sc
454 280 _m
454 344 440 395 414 431 _c
387 467 349 485 301 485 _c
253 485 215 467 188 431 _c
161 395 148 344 148 280 _c
148 215 161 165 188 129 _c
215 93 253 75 301 75 _c
349 75 387 93 414 129 _c
440 165 454 215 454 280 _c
544 68 _m
544 -24 523 -93 482 -139 _c
440 -184 377 -207 292 -207 _c
260 -207 231 -204 203 -200 _c
175 -195 147 -188 121 -178 _c
}_e{121 -91 _l
147 -105 173 -115 199 -122 _c
225 -129 251 -133 278 -133 _c
336 -133 380 -117 410 -87 _c
439 -56 454 -10 454 52 _c
454 96 _l
435 64 411 40 382 24 _c
353 8 319 0 279 0 _c
211 0 157 25 116 76 _c
75 127 55 195 55 280 _c
55 364 75 432 116 483 _c
157 534 211 560 279 560 _c
319 560 353 552 382 536 _c
411 520 435 496 454 464 _c
454 547 _l
544 547 _l
}_e{544 68 _l
_cl}_e}_d
/h{634 0 91 0 549 760 _sc
549 330 _m
549 0 _l
459 0 _l
459 327 _l
459 379 448 417 428 443 _c
408 469 378 482 338 482 _c
289 482 251 466 223 435 _c
195 404 181 362 181 309 _c
181 0 _l
91 0 _l
91 760 _l
181 760 _l
181 462 _l
202 494 227 519 257 535 _c
286 551 320 560 358 560 _c
420 560 468 540 500 501 _c
532 462 549 405 549 330 _c
_cl}_d
/i{278 0 94 0 184 760 _sc
94 547 _m
184 547 _l
184 0 _l
94 0 _l
94 547 _l
94 760 _m
184 760 _l
184 646 _l
94 646 _l
94 760 _l
_cl}_d
/l{278 0 94 0 184 760 _sc
94 760 _m
184 760 _l
184 0 _l
94 0 _l
94 760 _l
_cl}_d
/m{{974 0 91 0 889 560 _sc
520 442 _m
542 482 569 511 600 531 _c
631 550 668 560 711 560 _c
767 560 811 540 842 500 _c
873 460 889 403 889 330 _c
889 0 _l
799 0 _l
799 327 _l
799 379 789 418 771 444 _c
752 469 724 482 686 482 _c
639 482 602 466 575 435 _c
548 404 535 362 535 309 _c
535 0 _l
445 0 _l
445 327 _l
445 379 435 418 417 444 _c
398 469 369 482 331 482 _c
}_e{285 482 248 466 221 435 _c
194 404 181 362 181 309 _c
181 0 _l
91 0 _l
91 547 _l
181 547 _l
181 462 _l
201 495 226 520 255 536 _c
283 552 317 560 357 560 _c
397 560 430 550 458 530 _c
486 510 506 480 520 442 _c
_cl}_e}_d
/n{634 0 91 0 549 560 _sc
549 330 _m
549 0 _l
459 0 _l
459 327 _l
459 379 448 417 428 443 _c
408 469 378 482 338 482 _c
289 482 251 466 223 435 _c
195 404 181 362 181 309 _c
181 0 _l
91 0 _l
91 547 _l
181 547 _l
181 462 _l
202 494 227 519 257 535 _c
286 551 320 560 358 560 _c
420 560 468 540 500 501 _c
532 462 549 405 549 330 _c
_cl}_d
/o{612 0 55 -13 557 560 _sc
306 484 _m
258 484 220 465 192 427 _c
164 389 150 338 150 273 _c
150 207 163 156 191 118 _c
219 80 257 62 306 62 _c
354 62 392 80 420 118 _c
448 156 462 207 462 273 _c
462 337 448 389 420 427 _c
392 465 354 484 306 484 _c
306 560 _m
384 560 445 534 490 484 _c
534 433 557 363 557 273 _c
557 183 534 113 490 63 _c
445 12 384 -13 306 -13 _c
227 -13 165 12 121 63 _c
77 113 55 183 55 273 _c
55 363 77 433 121 484 _c
165 534 227 560 306 560 _c
_cl}_d
/p{{635 0 91 -207 580 560 _sc
181 82 _m
181 -207 _l
91 -207 _l
91 547 _l
181 547 _l
181 464 _l
199 496 223 520 252 536 _c
281 552 316 560 356 560 _c
422 560 476 533 518 481 _c
559 428 580 359 580 273 _c
580 187 559 117 518 65 _c
476 13 422 -13 356 -13 _c
316 -13 281 -5 252 10 _c
223 25 199 49 181 82 _c
487 273 _m
487 339 473 390 446 428 _c
418 466 381 485 334 485 _c
}_e{286 485 249 466 222 428 _c
194 390 181 339 181 273 _c
181 207 194 155 222 117 _c
249 79 286 61 334 61 _c
381 61 418 79 446 117 _c
473 155 487 207 487 273 _c
_cl}_e}_d
/r{411 0 91 0 411 560 _sc
411 463 _m
401 469 390 473 378 476 _c
366 478 353 480 339 480 _c
288 480 249 463 222 430 _c
194 397 181 350 181 288 _c
181 0 _l
91 0 _l
91 547 _l
181 547 _l
181 462 _l
199 495 224 520 254 536 _c
284 552 321 560 365 560 _c
371 560 378 559 386 559 _c
393 558 401 557 411 555 _c
411 463 _l
_cl}_d
/s{{521 0 54 -13 472 560 _sc
443 531 _m
443 446 _l
417 458 391 468 364 475 _c
336 481 308 485 279 485 _c
234 485 200 478 178 464 _c
156 450 145 430 145 403 _c
145 382 153 366 169 354 _c
185 342 217 330 265 320 _c
296 313 _l
360 299 405 279 432 255 _c
458 230 472 195 472 151 _c
472 100 452 60 412 31 _c
372 1 316 -13 246 -13 _c
216 -13 186 -10 154 -5 _c
}_e{122 0 89 8 54 20 _c
54 113 _l
87 95 120 82 152 74 _c
184 65 216 61 248 61 _c
290 61 323 68 346 82 _c
368 96 380 117 380 144 _c
380 168 371 187 355 200 _c
339 213 303 226 247 238 _c
216 245 _l
160 257 119 275 95 299 _c
70 323 58 356 58 399 _c
58 450 76 490 112 518 _c
148 546 200 560 268 560 _c
301 560 332 557 362 552 _c
391 547 418 540 443 531 _c
}_e{_cl}_e}_d
/t{392 0 27 0 368 702 _sc
183 702 _m
183 547 _l
368 547 _l
368 477 _l
183 477 _l
183 180 _l
183 135 189 106 201 94 _c
213 81 238 75 276 75 _c
368 75 _l
368 0 _l
276 0 _l
206 0 158 13 132 39 _c
106 65 93 112 93 180 _c
93 477 _l
27 477 _l
27 547 _l
93 547 _l
93 702 _l
183 702 _l
_cl}_d
/u{634 0 85 -13 543 560 _sc
85 216 _m
85 547 _l
175 547 _l
175 219 _l
175 167 185 129 205 103 _c
225 77 255 64 296 64 _c
344 64 383 79 411 110 _c
439 141 453 183 453 237 _c
453 547 _l
543 547 _l
543 0 _l
453 0 _l
453 84 _l
431 50 405 26 377 10 _c
348 -5 315 -13 277 -13 _c
214 -13 166 6 134 45 _c
101 83 85 140 85 216 _c
311 560 _m
311 560 _l
_cl}_d
end readonly def

/BuildGlyph
 {exch begin
 CharStrings exch
 2 copy known not{pop /.notdef}if
 true 3 1 roll get exec
 end}_d

/BuildChar {
 1 index /Encoding get exch get
 1 index /BuildGlyph get exec
}_d

FontName currentdict end definefont pop
end
%%EndProlog
mpldict begin
75.6 223.2 translate
460.8 345.6 0 0 clipbox
gsave
0 0 m
460.8 0 l
460.8 345.6 l
0 345.6 l
cl
1.000 setgray
fill
grestore
gsave
57.6 38.016 m
414.72 38.016 l
414.72 304.128 l
57.6 304.128 l
cl
1.000 setgray
fill
grestore
0.800 setlinewidth
1 setlinejoin
2 setlinecap
[] 0 setdash
0.690 setgray
gsave
357.1 266.1 57.6 38.02 clipbox
73.832727 38.016 m
73.832727 304.128 l
stroke
grestore
0 setlinecap
0.000 setgray
gsave
/o {
gsave
newpath
translate
0.8 setlinewidth
1 setlinejoin
0 setlinecap
0 0 m
0 -3.5 l

gsave
0.000 setgray
fill
grestore
stroke
grestore
} bind def
73.8327 38.016 o
grestore
/DejaVuSans findfont
10.000 scalefont
setfont
gsave
70.653040 23.422250 translate
0.000000 rotate
0.000000 0 m /zero glyphshow
grestore
2 setlinecap
0.690 setgray
gsave
357.1 266.1 57.6 38.02 clipbox
139.419504 38.016 m
139.419504 304.128 l
stroke
grestore
0 setlinecap
0.000 setgray
gsave
/o {
gsave
newpath
translate
0.8 setlinewidth
1 setlinejoin
0 setlinecap
0 0 m
0 -3.5 l

gsave
0.000 setgray
fill
grestore
stroke
grestore
} bind def
139.42 38.016 o
grestore
gsave
133.060129 23.422250 translate
0.000000 rotate
0.000000 0 m /two glyphshow
6.362305 0 m /zero glyphshow
grestore
2 setlinecap
0.690 setgray
gsave
357.1 266.1 57.6 38.02 clipbox
205.006281 38.016 m
205.006281 304.128 l
stroke
grestore
0 setlinecap
0.000 setgray
gsave
/o {
gsave
newpath
translate
0.8 setlinewidth
1 setlinejoin
0 setlinecap
0 0 m
0 -3.5 l

gsave
0.000 setgray
fill
grestore
stroke
grestore
} bind def
205.006 38.016 o
grestore
gsave
198.646906 23.422250 translate
0.000000 rotate
0.000000 0 m /four glyphshow
6.362305 0 m /zero glyphshow
grestore
2 setlinecap
0.690 setgray
gsave
357.1 266.1 57.6 38.02 clipbox
270.593058 38.016 m
270.593058 304.128 l
stroke
grestore
0 setlinecap
0.000 setgray
gsave
/o {
gsave
newpath
translate
0.8 setlinewidth
1 setlinejoin
0 setlinecap
0 0 m
0 -3.5 l

gsave
0.000 setgray
fill
grestore
stroke
grestore
} bind def
270.593 38.016 o
grestore
gsave
264.233683 23.422250 translate
0.000000 rotate
0.000000 0 m /six glyphshow
6.362305 0 m /zero glyphshow
grestore
2 setlinecap
0.690 setgray
gsave
357.1 266.1 57.6 38.02 clipbox
336.179835 38.016 m
336.179835 304.128 l
stroke
grestore
0 setlinecap
0.000 setgray
gsave
/o {
gsave
newpath
translate
0.8 setlinewidth
1 setlinejoin
0 setlinecap
0 0 m
0 -3.5 l

gsave
0.000 setgray
fill
grestore
stroke
grestore
} bind def
336.18 38.016 o
grestore
gsave
329.820460 23.422250 translate
0.000000 rotate
0.000000 0 m /eight glyphshow
6.362305 0 m /zero glyphshow
grestore
2 setlinecap
0.690 setgray
gsave
357.1 266.1 57.6 38.02 clipbox
401.766612 38.016 m
401.766612 304.128 l
stroke
grestore
0 setlinecap
0.000 setgray
gsave
/o {
gsave
newpath
translate
0.8 setlinewidth
1 setlinejoin
0 setlinecap
0 0 m
0 -3.5 l

gsave
0.000 setgray
fill
grestore
stroke
grestore
} bind def
401.767 38.016 o
grestore
gsave
392.227549 23.422250 translate
0.000000 rotate
0.000000 0 m /one glyphshow
6.362305 0 m /zero glyphshow
12.724609 0 m /zero glyphshow
grestore
gsave
220.847500 9.750375 translate
0.000000 rotate
0.000000 0 m /E glyphshow
6.318359 0 m /p glyphshow
12.666016 0 m /o glyphshow
18.784180 0 m /c glyphshow
24.282227 0 m /h glyphshow
grestore
2 setlinecap
0.690 setgray
gsave
357.1 266.1 57.6 38.02 clipbox
57.6 80.301661 m
414.72 80.301661 l
stroke
grestore
0 setlinecap
0.000 setgray
gsave
/o {
gsave
newpath
translate
0.8 setlinewidth
1 setlinejoin
0 setlinecap
-0 0 m
-3.5 0 l

gsave
0.000 setgray
fill
grestore
stroke
grestore
} bind def
57.6 80.3017 o
grestore
gsave
32.600000 75.840723 translate
0.000000 rotate
/DejaVuSans findfont
10.0 scalefont
setfont
0.000000 0.976562 moveto
/one glyphshow
6.362305 0.976562 moveto
/zero glyphshow
/DejaVuSans findfont
7.0 scalefont
setfont
12.820312 4.804688 moveto
/zero glyphshow

grestore
2 setlinecap
0.690 setgray
gsave
357.1 266.1 57.6 38.02 clipbox
57.6 124.797138 m
414.72 124.797138 l
stroke
grestore
0 setlinecap
0.000 setgray
gsave
/o {
gsave
newpath
translate
0.8 setlinewidth
1 setlinejoin
0 setlinecap
-0 0 m
-3.5 0 l

gsave
0.000 setgray
fill
grestore
stroke
grestore
} bind def
57.6 124.797 o
grestore
gsave
32.600000 120.336200 translate
0.000000 rotate
/DejaVuSans findfont
10.0 scalefont
setfont
0.000000 0.976562 moveto
/one glyphshow
6.362305 0.976562 moveto
/zero glyphshow
/DejaVuSans findfont
7.0 scalefont
setfont
12.820312 4.804688 moveto
/three glyphshow

grestore
2 setlinecap
0.690 setgray
gsave
357.1 266.1 57.6 38.02 clipbox
57.6 169.292615 m
414.72 169.292615 l
stroke
grestore
0 setlinecap
0.000 setgray
gsave
/o {
gsave
newpath
translate
0.8 setlinewidth
1 setlinejoin
0 setlinecap
-0 0 m
-3.5 0 l

gsave
0.000 setgray
fill
grestore
stroke
grestore
} bind def
57.6 169.293 o
grestore
gsave
32.600000 164.831678 translate
0.000000 rotate
/DejaVuSans findfont
10.0 scalefont
setfont
0.000000 0.976562 moveto
/one glyphshow
6.362305 0.976562 moveto
/zero glyphshow
/DejaVuSans findfont
7.0 scalefont
setfont
12.820312 4.804688 moveto
/six glyphshow

grestore
2 setlinecap
0.690 setgray
gsave
357.1 266.1 57.6 38.02 clipbox
57.6 213.788092 m
414.72 213.788092 l
stroke
grestore
0 setlinecap
0.000 setgray
gsave
/o {
gsave
newpath
translate
0.8 setlinewidth
1 setlinejoin
0 setlinecap
-0 0 m
-3.5 0 l

gsave
0.000 setgray
fill
grestore
stroke
grestore
} bind def
57.6 213.788 o
grestore
gsave
32.600000 209.327155 translate
0.000000 rotate
/DejaVuSans findfont
10.0 scalefont
setfont
0.000000 0.976562 moveto
/one glyphshow
6.362305 0.976562 moveto
/zero glyphshow
/DejaVuSans findfont
7.0 scalefont
setfont
12.820312 4.804688 moveto
/nine glyphshow

grestore
2 setlinecap
0.690 setgray
gsave
357.1 266.1 57.6 38.02 clipbox
57.6 258.28357 m
414.72 258.28357 l
stroke
grestore
0 setlinecap
0.000 setgray
gsave
/o {
gsave
newpath
translate
0.8 setlinewidth
1 setlinejoin
0 setlinecap
-0 0 m
-3.5 0 l

gsave
0.000 setgray
fill
grestore
stroke
grestore
} bind def
57.6 258.284 o
grestore
gsave
27.600000 253.822632 translate
0.000000 rotate
/DejaVuSans findfont
10.0 scalefont
setfont
0.000000 0.976562 moveto
/one glyphshow
6.362305 0.976562 moveto
/zero glyphshow
/DejaVuSans findfont
7.0 scalefont
setfont
12.820312 4.804688 moveto
/one glyphshow
17.273926 4.804688 moveto
/two glyphshow

grestore
2 setlinecap
0.690 setgray
gsave
357.1 266.1 57.6 38.02 clipbox
57.6 302.779047 m
414.72 302.779047 l
stroke
grestore
0 setlinecap
0.000 setgray
gsave
/o {
gsave
newpath
translate
0.8 setlinewidth
1 setlinejoin
0 setlinecap
-0 0 m
-3.5 0 l

gsave
0.000 setgray
fill
grestore
stroke
grestore
} bind def
57.6 302.779 o
grestore
gsave
27.600000 298.818109 translate
0.000000 rotate
/DejaVuSans findfont
10.0 scalefont
setfont
0.000000 0.064063 moveto
/one glyphshow
6.362305 0.064063 moveto
/zero glyphshow
/DejaVuSans findfont
7.0 scalefont
setfont
12.820312 3.892188 moveto
/one glyphshow
17.273926 3.892188 moveto
/five glyphshow

grestore
gsave
21.521875 140.087625 translate
90.000000 rotate
0.000000 0 m /T glyphshow
4.608398 0 m /r glyphshow
8.719727 0 m /a glyphshow
14.847656 0 m /i glyphshow
17.625977 0 m /n glyphshow
23.963867 0 m /i glyphshow
26.742188 0 m /n glyphshow
33.080078 0 m /g glyphshow
39.427734 0 m /space glyphshow
42.606445 0 m /l glyphshow
45.384766 0 m /o glyphshow
51.502930 0 m /s glyphshow
56.712891 0 m /s glyphshow
grestore
1.500 setlinewidth
2 setlinecap
0.122 0.467 0.706 setrgbcolor
gsave
357.1 266.1 57.6 38.02 clipbox
73.832727 91.841079 m
77.112066 92.420251 l
80.391405 92.570853 l
83.670744 93.05899 l
86.950083 93.297789 l
stroke
grestore
1.000 0.498 0.055 setrgbcolor
gsave
357.1 266.1 57.6 38.02 clipbox
73.832727 91.030505 m
77.112066 80.578823 l
80.391405 78.254477 l
83.670744 77.229724 l
86.950083 76.48407 l
90.229421 75.4333 l
93.50876 74.646034 l
96.788099 74.524258 l
100.067438 73.145455 l
103.346777 73.320526 l
106.626116 72.577452 l
109.905455 72.050854 l
113.184793 71.562126 l
116.464132 71.688323 l
119.743471 71.373352 l
123.02281 71.522935 l
126.302149 70.794348 l
129.581488 71.033269 l
132.860826 69.973333 l
136.140165 70.238392 l
139.419504 69.319073 l
142.698843 67.956957 l
145.978182 68.270194 l
149.257521 67.878045 l
152.53686 67.540277 l
155.816198 67.112563 l
159.095537 67.552848 l
162.374876 67.432807 l
165.654215 66.908699 l
168.933554 66.367031 l
172.212893 65.834574 l
175.492231 65.421442 l
178.77157 65.554915 l
182.050909 66.451252 l
185.330248 66.175516 l
188.609587 64.656859 l
191.888926 65.075115 l
195.168264 64.710241 l
198.447603 64.465091 l
201.726942 63.84886 l
205.006281 64.090394 l
208.28562 64.801277 l
211.564959 63.779959 l
214.844298 64.320294 l
218.123636 63.863164 l
221.402975 63.06911 l
224.682314 63.364333 l
227.961653 62.302967 l
231.240992 64.387255 l
234.520331 62.770964 l
237.799669 61.659169 l
241.079008 62.016149 l
244.358347 56.984713 l
247.637686 59.075084 l
250.917025 59.008041 l
254.196364 59.886315 l
257.475702 60.873612 l
260.755041 58.27672 l
264.03438 59.267879 l
267.313719 58.508222 l
270.593058 58.874531 l
273.872397 58.239275 l
277.151736 58.946933 l
280.431074 61.212497 l
283.710413 57.893764 l
286.989752 57.413041 l
290.269091 57.656673 l
293.54843 58.121484 l
296.827769 59.433577 l
300.107107 57.212671 l
303.386446 56.958506 l
306.665785 54.014768 l
309.945124 56.557906 l
313.224463 59.450695 l
316.503802 59.5675 l
319.78314 57.840647 l
323.062479 59.215712 l
326.341818 58.602681 l
329.621157 56.504818 l
332.900496 55.454129 l
336.179835 56.614679 l
339.459174 54.033959 l
342.738512 53.622499 l
346.017851 55.269728 l
349.29719 55.98464 l
352.576529 53.281958 l
355.855868 53.460868 l
359.135207 52.427661 l
362.414545 54.932577 l
365.693884 53.613423 l
368.973223 53.443652 l
372.252562 51.030783 l
375.531901 54.737242 l
378.81124 55.152047 l
382.090579 52.901997 l
385.369917 50.744485 l
388.649256 51.421678 l
391.928595 53.538155 l
395.207934 53.427646 l
398.487273 50.112 l
stroke
grestore
0.173 0.627 0.173 setrgbcolor
gsave
357.1 266.1 57.6 38.02 clipbox
73.832727 108.173751 m
77.112066 105.346726 l
80.391405 102.776164 l
83.670744 101.28214 l
86.950083 100.45426 l
90.229421 99.630853 l
93.50876 99.068902 l
96.788099 98.233101 l
100.067438 98.282444 l
103.346777 97.125078 l
106.626116 97.500216 l
109.905455 96.290047 l
113.184793 96.733996 l
116.464132 95.68701 l
119.743471 96.153084 l
123.02281 95.094615 l
126.302149 95.654736 l
129.581488 94.552984 l
132.860826 95.145861 l
136.140165 94.104561 l
139.419504 94.699048 l
142.698843 93.669834 l
145.978182 94.292461 l
149.257521 93.259439 l
152.53686 93.899235 l
155.816198 92.866585 l
159.095537 93.524166 l
162.374876 92.482445 l
165.654215 93.143613 l
168.933554 92.161282 l
172.212893 92.872403 l
175.492231 91.888336 l
178.77157 92.438798 l
182.050909 91.547936 l
185.330248 92.048306 l
188.609587 91.23924 l
191.888926 91.687868 l
195.168264 90.950926 l
198.447603 91.35339 l
201.726942 90.689002 l
205.006281 91.040223 l
208.28562 90.469606 l
211.564959 90.733693 l
214.844298 90.249096 l
218.123636 90.442696 l
221.402975 90.015464 l
224.682314 90.078659 l
227.961653 89.788685 l
231.240992 89.744284 l
234.520331 89.565963 l
237.799669 89.445866 l
241.079008 89.353246 l
244.358347 89.180158 l
247.637686 89.144755 l
250.917025 88.927566 l
254.196364 88.911786 l
257.475702 88.671956 l
260.755041 88.661894 l
264.03438 88.401866 l
267.313719 88.402052 l
270.593058 88.136057 l
273.872397 88.143186 l
277.151736 88.113454 l
280.431074 88.220116 l
283.710413 87.991103 l
286.989752 87.959093 l
290.269091 87.554217 l
293.54843 87.682302 l
296.827769 87.188142 l
300.107107 87.436152 l
303.386446 86.902374 l
306.665785 87.257798 l
309.945124 86.617134 l
313.224463 86.904342 l
316.503802 86.289019 l
319.78314 86.667978 l
323.062479 86.104957 l
326.341818 86.415233 l
329.621157 85.838052 l
332.900496 86.177015 l
336.179835 85.561151 l
339.459174 85.923177 l
342.738512 85.279057 l
346.017851 85.688433 l
349.29719 85.038078 l
352.576529 85.472256 l
355.855868 84.950652 l
359.135207 85.285279 l
362.414545 84.77158 l
365.693884 85.099914 l
368.973223 84.786493 l
372.252562 84.710569 l
375.531901 84.542668 l
378.81124 84.288913 l
382.090579 84.285929 l
385.369917 83.945657 l
388.649256 84.110159 l
391.928595 84.092573 l
395.207934 84.214988 l
398.487273 84.042253 l
stroke
grestore
0.839 0.153 0.157 setrgbcolor
gsave
357.1 266.1 57.6 38.02 clipbox
73.832727 91.650972 m
77.112066 75.786402 l
80.391405 73.928115 l
83.670744 72.838566 l
86.950083 72.016795 l
90.229421 71.096833 l
93.50876 70.50493 l
96.788099 69.779359 l
100.067438 69.190462 l
103.346777 68.998415 l
106.626116 67.734162 l
109.905455 67.200948 l
113.184793 67.018652 l
116.464132 66.228066 l
119.743471 65.801801 l
123.02281 65.013162 l
126.302149 65.049629 l
129.581488 64.509785 l
132.860826 64.163701 l
136.140165 63.721007 l
139.419504 63.054296 l
142.698843 61.86798 l
145.978182 62.202132 l
149.257521 62.414971 l
152.53686 60.656943 l
155.816198 61.510945 l
159.095537 61.050286 l
162.374876 60.848236 l
165.654215 60.522157 l
168.933554 59.233247 l
172.212893 60.134011 l
175.492231 59.638216 l
178.77157 59.182287 l
182.050909 58.036676 l
185.330248 60.218106 l
188.609587 58.005718 l
191.888926 58.354241 l
195.168264 57.1134 l
198.447603 57.709381 l
201.726942 57.617086 l
205.006281 57.540524 l
208.28562 57.546722 l
211.564959 57.786993 l
214.844298 56.702261 l
218.123636 56.475729 l
221.402975 58.934841 l
224.682314 56.537949 l
227.961653 56.239281 l
231.240992 57.37667 l
234.520331 57.259184 l
237.799669 55.482186 l
241.079008 57.23509 l
244.358347 55.659808 l
247.637686 56.04566 l
250.917025 55.331926 l
254.196364 54.02683 l
257.475702 55.260267 l
260.755041 56.838333 l
264.03438 55.336318 l
267.313719 54.640683 l
270.593058 54.35033 l
273.872397 56.519444 l
277.151736 55.859818 l
280.431074 54.529908 l
283.710413 55.615718 l
286.989752 56.225473 l
290.269091 55.718895 l
293.54843 52.202782 l
296.827769 55.769394 l
300.107107 52.663412 l
303.386446 55.814372 l
306.665785 56.000789 l
309.945124 54.203158 l
313.224463 53.93877 l
316.503802 55.060954 l
319.78314 53.510075 l
323.062479 53.42036 l
326.341818 56.589866 l
329.621157 53.512162 l
332.900496 53.055257 l
336.179835 55.631872 l
339.459174 52.732519 l
342.738512 53.923413 l
346.017851 55.690566 l
349.29719 54.515847 l
352.576529 50.564281 l
355.855868 57.020091 l
359.135207 54.655031 l
362.414545 51.912851 l
365.693884 53.853318 l
368.973223 51.983274 l
372.252562 51.736577 l
375.531901 55.872533 l
378.81124 54.301633 l
382.090579 52.485568 l
385.369917 55.643787 l
388.649256 52.775024 l
391.928595 54.041735 l
395.207934 51.254981 l
398.487273 55.888444 l
stroke
grestore
0.580 0.404 0.741 setrgbcolor
gsave
357.1 266.1 57.6 38.02 clipbox
73.832727 192.883402 m
77.112066 85.672372 l
80.391405 85.67172 l
83.670744 85.671274 l
86.950083 85.670964 l
90.229421 85.670761 l
93.50876 85.670619 l
96.788099 85.670519 l
100.067438 85.670453 l
103.346777 85.670412 l
106.626116 85.670375 l
109.905455 85.670355 l
113.184793 85.670343 l
116.464132 85.670329 l
119.743471 85.670325 l
123.02281 85.670324 l
126.302149 85.670319 l
129.581488 85.670319 l
132.860826 85.670315 l
136.140165 85.670314 l
139.419504 85.670313 l
142.698843 85.670315 l
145.978182 85.670315 l
149.257521 85.670311 l
152.53686 85.670313 l
155.816198 85.67031 l
159.095537 85.670315 l
162.374876 85.670313 l
165.654215 85.670315 l
168.933554 85.67031 l
172.212893 85.670315 l
175.492231 85.670315 l
178.77157 85.670311 l
182.050909 85.670311 l
185.330248 85.670313 l
188.609587 85.670313 l
191.888926 85.670309 l
195.168264 85.670313 l
198.447603 85.670312 l
201.726942 85.670316 l
205.006281 85.670311 l
208.28562 85.67031 l
211.564959 85.670309 l
214.844298 85.67031 l
218.123636 85.670314 l
221.402975 85.670314 l
224.682314 85.670309 l
227.961653 85.670313 l
231.240992 85.670312 l
234.520331 85.670313 l
237.799669 85.670311 l
241.079008 85.670314 l
244.358347 85.67031 l
247.637686 85.67031 l
250.917025 85.670315 l
254.196364 85.670311 l
257.475702 85.670305 l
260.755041 85.670314 l
264.03438 85.670311 l
267.313719 85.67031 l
270.593058 85.670315 l
273.872397 85.670311 l
277.151736 85.670313 l
280.431074 85.67031 l
283.710413 85.67031 l
286.989752 85.670313 l
290.269091 85.670313 l
293.54843 85.670315 l
296.827769 85.670314 l
300.107107 85.67031 l
303.386446 85.670313 l
306.665785 85.670313 l
309.945124 85.670311 l
313.224463 85.670313 l
316.503802 85.670309 l
319.78314 85.670315 l
323.062479 85.670309 l
326.341818 85.67031 l
329.621157 85.67031 l
332.900496 85.670313 l
336.179835 85.670312 l
339.459174 85.670315 l
342.738512 85.670315 l
346.017851 85.670311 l
349.29719 85.670311 l
352.576529 85.670308 l
355.855868 85.670315 l
359.135207 85.670308 l
362.414545 85.670311 l
365.693884 85.670306 l
368.973223 85.670315 l
372.252562 85.670312 l
375.531901 85.670313 l
378.81124 85.670307 l
382.090579 85.670309 l
385.369917 85.670313 l
388.649256 85.670314 l
391.928595 85.670311 l
395.207934 85.670311 l
398.487273 85.670313 l
stroke
grestore
0.549 0.337 0.294 setrgbcolor
gsave
357.1 266.1 57.6 38.02 clipbox
73.832727 292.032 m
77.112066 287.232168 l
80.391405 282.3834 l
83.670744 277.534629 l
86.950083 272.685865 l
90.229421 267.837093 l
93.50876 262.988328 l
96.788099 258.139557 l
100.067438 253.290791 l
103.346777 248.442023 l
106.626116 243.59325 l
109.905455 238.744489 l
113.184793 233.895717 l
116.464132 229.046952 l
119.743471 224.198183 l
123.02281 219.349412 l
126.302149 214.500647 l
129.581488 209.651875 l
132.860826 204.803111 l
136.140165 199.954338 l
139.419504 195.105572 l
142.698843 190.256805 l
145.978182 185.408039 l
149.257521 180.559272 l
152.53686 175.710505 l
155.816198 170.861743 l
159.095537 166.01299 l
162.374876 161.164247 l
165.654215 156.31554 l
168.933554 151.466897 l
172.212893 146.618389 l
175.492231 141.770186 l
178.77157 136.922614 l
182.050909 132.076377 l
185.330248 127.232983 l
188.609587 122.395607 l
191.888926 117.570956 l
195.168264 112.773093 l
198.447603 108.031076 l
201.726942 103.403211 l
205.006281 98.999688 l
208.28562 95.004975 l
211.564959 91.663272 l
214.844298 89.176043 l
218.123636 87.559026 l
221.402975 86.629159 l
224.682314 86.139813 l
227.961653 85.895748 l
231.240992 85.777488 l
234.520331 85.721022 l
237.799669 85.694249 l
241.079008 85.6816 l
244.358347 85.675629 l
247.637686 85.672816 l
250.917025 85.671497 l
254.196364 85.67087 l
257.475702 85.67057 l
260.755041 85.670435 l
264.03438 85.670369 l
267.313719 85.670337 l
270.593058 85.670325 l
273.872397 85.670316 l
277.151736 85.670319 l
280.431074 85.670318 l
283.710413 85.670313 l
286.989752 85.670313 l
290.269091 85.670315 l
293.54843 85.67031 l
296.827769 85.670313 l
300.107107 85.670311 l
303.386446 85.670313 l
306.665785 85.670315 l
309.945124 85.670313 l
313.224463 85.670313 l
316.503802 85.670313 l
319.78314 85.670312 l
323.062479 85.670313 l
326.341818 85.670311 l
329.621157 85.670311 l
332.900496 85.670311 l
336.179835 85.670312 l
339.459174 85.67031 l
342.738512 85.670309 l
346.017851 85.670315 l
349.29719 85.670313 l
352.576529 85.670311 l
355.855868 85.67031 l
359.135207 85.670313 l
362.414545 85.670311 l
365.693884 85.670311 l
368.973223 85.670309 l
372.252562 85.670309 l
375.531901 85.670313 l
378.81124 85.670314 l
382.090579 85.670312 l
385.369917 85.670311 l
388.649256 85.67031 l
391.928595 85.670312 l
395.207934 85.670311 l
398.487273 85.67031 l
stroke
grestore
0.890 0.467 0.761 setrgbcolor
gsave
357.1 266.1 57.6 38.02 clipbox
73.832727 278.131058 m
77.112066 277.682354 l
80.391405 277.197914 l
83.670744 276.713474 l
86.950083 276.229033 l
90.229421 275.744593 l
93.50876 275.260152 l
96.788099 274.775712 l
100.067438 274.291274 l
103.346777 273.806831 l
106.626116 273.322392 l
109.905455 272.83795 l
113.184793 272.353511 l
116.464132 271.869075 l
119.743471 271.384629 l
123.02281 270.900191 l
126.302149 270.415753 l
129.581488 269.931313 l
132.860826 269.446872 l
136.140165 268.96243 l
139.419504 268.477993 l
142.698843 267.993552 l
145.978182 267.509111 l
149.257521 267.024671 l
152.53686 266.540232 l
155.816198 266.055791 l
159.095537 265.571352 l
162.374876 265.08691 l
165.654215 264.602471 l
168.933554 264.118031 l
172.212893 263.633587 l
175.492231 263.149149 l
178.77157 262.664708 l
182.050909 262.18027 l
185.330248 261.695828 l
188.609587 261.211387 l
191.888926 260.726946 l
195.168264 260.242507 l
198.447603 259.758067 l
201.726942 259.273625 l
205.006281 258.789186 l
208.28562 258.304746 l
211.564959 257.820307 l
214.844298 257.335865 l
218.123636 256.851427 l
221.402975 256.366986 l
224.682314 255.882545 l
227.961653 255.398107 l
231.240992 254.913664 l
234.520331 254.429225 l
237.799669 253.944786 l
241.079008 253.460342 l
244.358347 252.975909 l
247.637686 252.491464 l
250.917025 252.007025 l
254.196364 251.522585 l
257.475702 251.038145 l
260.755041 250.553704 l
264.03438 250.069262 l
267.313719 249.584823 l
270.593058 249.100383 l
273.872397 248.615943 l
277.151736 248.131503 l
280.431074 247.647064 l
283.710413 247.162624 l
286.989752 246.678184 l
290.269091 246.193743 l
293.54843 245.709303 l
296.827769 245.224863 l
300.107107 244.740422 l
303.386446 244.255982 l
306.665785 243.771541 l
309.945124 243.287104 l
313.224463 242.802664 l
316.503802 242.31822 l
319.78314 241.83378 l
323.062479 241.349341 l
326.341818 240.864899 l
329.621157 240.38046 l
332.900496 239.896019 l
336.179835 239.41158 l
339.459174 238.927139 l
342.738512 238.442699 l
346.017851 237.958258 l
349.29719 237.473819 l
352.576529 236.989379 l
355.855868 236.50494 l
359.135207 236.020499 l
362.414545 235.536059 l
365.693884 235.05162 l
368.973223 234.567179 l
372.252562 234.082739 l
375.531901 233.5983 l
378.81124 233.113859 l
382.090579 232.629416 l
385.369917 232.144977 l
388.649256 231.660538 l
391.928595 231.176101 l
395.207934 230.691658 l
398.487273 230.207216 l
stroke
grestore
0.498 setgray
gsave
357.1 266.1 57.6 38.02 clipbox
73.832727 265.310353 m
77.112066 265.296393 l
80.391405 265.247955 l
83.670744 265.199514 l
86.950083 265.151074 l
90.229421 265.102634 l
93.50876 265.054194 l
96.788099 265.005755 l
100.067438 264.957316 l
103.346777 264.908877 l
106.626116 264.860437 l
109.905455 264.811996 l
113.184793 264.763557 l
116.464132 264.715117 l
119.743471 264.666677 l
123.02281 264.618238 l
126.302149 264.569798 l
129.581488 264.521358 l
132.860826 264.472918 l
136.140165 264.424481 l
139.419504 264.376041 l
142.698843 264.327601 l
145.978182 264.279159 l
149.257521 264.230724 l
152.53686 264.182282 l
155.816198 264.133843 l
159.095537 264.085403 l
162.374876 264.036963 l
165.654215 263.988522 l
168.933554 263.940085 l
172.212893 263.891644 l
175.492231 263.843205 l
178.77157 263.794765 l
182.050909 263.746325 l
185.330248 263.697886 l
188.609587 263.649445 l
191.888926 263.601007 l
195.168264 263.552568 l
198.447603 263.50413 l
201.726942 263.455689 l
205.006281 263.407249 l
208.28562 263.35881 l
211.564959 263.310369 l
214.844298 263.26193 l
218.123636 263.21349 l
221.402975 263.165051 l
224.682314 263.116611 l
227.961653 263.068173 l
231.240992 263.019733 l
234.520331 262.971292 l
237.799669 262.922852 l
241.079008 262.874412 l
244.358347 262.825973 l
247.637686 262.777534 l
250.917025 262.729096 l
254.196364 262.680655 l
257.475702 262.632215 l
260.755041 262.583776 l
264.03438 262.535337 l
267.313719 262.486896 l
270.593058 262.438457 l
273.872397 262.390019 l
277.151736 262.341578 l
280.431074 262.293139 l
283.710413 262.244697 l
286.989752 262.196259 l
290.269091 262.14782 l
293.54843 262.099379 l
296.827769 262.050941 l
300.107107 262.002503 l
303.386446 261.954061 l
306.665785 261.905622 l
309.945124 261.857183 l
313.224463 261.808742 l
316.503802 261.760303 l
319.78314 261.711862 l
323.062479 261.663419 l
326.341818 261.614974 l
329.621157 261.566543 l
332.900496 261.518107 l
336.179835 261.469665 l
339.459174 261.421226 l
342.738512 261.372787 l
346.017851 261.324347 l
349.29719 261.275907 l
352.576529 261.227468 l
355.855868 261.179028 l
359.135207 261.130589 l
362.414545 261.082148 l
365.693884 261.033711 l
368.973223 260.98527 l
372.252562 260.93683 l
375.531901 260.888392 l
378.81124 260.839952 l
382.090579 260.791513 l
385.369917 260.743072 l
388.649256 260.694634 l
391.928595 260.646193 l
395.207934 260.597755 l
398.487273 260.549315 l
stroke
grestore
0.737 0.741 0.133 setrgbcolor
gsave
357.1 266.1 57.6 38.02 clipbox
73.832727 264.486139 m
77.112066 264.472217 l
80.391405 264.423777 l
83.670744 264.375338 l
86.950083 264.326898 l
90.229421 264.278458 l
93.50876 264.230013 l
96.788099 264.18158 l
100.067438 264.133141 l
103.346777 264.0847 l
106.626116 264.036261 l
109.905455 263.987822 l
113.184793 263.939382 l
116.464132 263.890942 l
119.743471 263.842502 l
123.02281 263.794063 l
126.302149 263.745623 l
129.581488 263.697185 l
132.860826 263.648744 l
136.140165 263.600304 l
139.419504 263.551865 l
142.698843 263.503426 l
145.978182 263.454986 l
149.257521 263.406547 l
152.53686 263.358107 l
155.816198 263.309666 l
159.095537 263.261229 l
162.374876 263.212787 l
165.654215 263.164348 l
168.933554 263.115909 l
172.212893 263.067465 l
175.492231 263.01903 l
178.77157 262.970591 l
182.050909 262.922151 l
185.330248 262.873711 l
188.609587 262.825271 l
191.888926 262.776831 l
195.168264 262.728393 l
198.447603 262.679953 l
201.726942 262.631514 l
205.006281 262.583074 l
208.28562 262.534634 l
211.564959 262.486194 l
214.844298 262.437754 l
218.123636 262.389314 l
221.402975 262.340876 l
224.682314 262.292437 l
227.961653 262.243995 l
231.240992 262.195558 l
234.520331 262.147118 l
237.799669 262.098678 l
241.079008 262.050238 l
244.358347 262.001798 l
247.637686 261.953359 l
250.917025 261.904918 l
254.196364 261.856479 l
257.475702 261.808042 l
260.755041 261.7596 l
264.03438 261.711163 l
267.313719 261.662723 l
270.593058 261.614278 l
273.872397 261.565846 l
277.151736 261.517402 l
280.431074 261.468965 l
283.710413 261.420526 l
286.989752 261.372084 l
290.269091 261.323646 l
293.54843 261.275205 l
296.827769 261.226766 l
300.107107 261.178326 l
303.386446 261.129887 l
306.665785 261.081446 l
309.945124 261.033008 l
313.224463 260.984568 l
316.503802 260.936128 l
319.78314 260.887688 l
323.062479 260.83925 l
326.341818 260.790811 l
329.621157 260.742371 l
332.900496 260.693931 l
336.179835 260.645492 l
339.459174 260.597051 l
342.738512 260.548612 l
346.017851 260.500173 l
349.29719 260.451732 l
352.576529 260.403294 l
355.855868 260.354854 l
359.135207 260.306415 l
362.414545 260.257974 l
365.693884 260.209536 l
368.973223 260.161096 l
372.252562 260.112656 l
375.531901 260.064217 l
378.81124 260.015777 l
382.090579 259.967338 l
385.369917 259.9189 l
388.649256 259.87046 l
391.928595 259.822022 l
395.207934 259.773585 l
398.487273 259.725149 l
stroke
grestore
0.090 0.745 0.812 setrgbcolor
gsave
357.1 266.1 57.6 38.02 clipbox
73.832727 105.964299 m
77.112066 102.925751 l
80.391405 99.076053 l
83.670744 94.426831 l
86.950083 90.463773 l
90.229421 87.60648 l
93.50876 85.831866 l
96.788099 85.378444 l
100.067438 85.23805 l
103.346777 85.154565 l
106.626116 85.097762 l
109.905455 85.076099 l
113.184793 85.043778 l
116.464132 85.014486 l
119.743471 84.915907 l
123.02281 84.883431 l
126.302149 84.856425 l
129.581488 84.838764 l
132.860826 84.820194 l
136.140165 84.80648 l
139.419504 84.801131 l
142.698843 84.786504 l
145.978182 84.781016 l
149.257521 84.761402 l
152.53686 84.772961 l
155.816198 84.770233 l
159.095537 84.752244 l
162.374876 84.744897 l
165.654215 84.746681 l
168.933554 84.724204 l
172.212893 84.736732 l
175.492231 84.726617 l
178.77157 84.719714 l
182.050909 84.716856 l
185.330248 84.711528 l
188.609587 84.721746 l
191.888926 84.698364 l
195.168264 84.707068 l
198.447603 84.708987 l
201.726942 84.70625 l
205.006281 84.690538 l
208.28562 84.703109 l
211.564959 84.688291 l
214.844298 84.711375 l
218.123636 84.691539 l
221.402975 84.700698 l
224.682314 84.69245 l
227.961653 84.708947 l
231.240992 84.689674 l
234.520331 84.706643 l
237.799669 84.692488 l
241.079008 84.696912 l
244.358347 84.692752 l
247.637686 84.70843 l
250.917025 84.694017 l
254.196364 84.677969 l
257.475702 84.685884 l
260.755041 84.691848 l
264.03438 84.692011 l
267.313719 84.69707 l
270.593058 84.684164 l
273.872397 84.679136 l
277.151736 84.701889 l
280.431074 84.690198 l
283.710413 84.700648 l
286.989752 84.690742 l
290.269091 84.697616 l
293.54843 84.686987 l
296.827769 84.676599 l
300.107107 84.687334 l
303.386446 84.683875 l
306.665785 84.693142 l
309.945124 84.688881 l
313.224463 84.69062 l
316.503802 84.680714 l
319.78314 84.697974 l
323.062479 84.694044 l
326.341818 84.689747 l
329.621157 84.711605 l
332.900496 84.684332 l
336.179835 84.678421 l
339.459174 84.680716 l
342.738512 84.724059 l
346.017851 84.705042 l
349.29719 84.687413 l
352.576529 84.677471 l
355.855868 84.695487 l
359.135207 84.676431 l
362.414545 84.693232 l
365.693884 84.684718 l
368.973223 84.720747 l
372.252562 84.695742 l
375.531901 84.677625 l
378.81124 84.70342 l
382.090579 84.687966 l
385.369917 84.69739 l
388.649256 84.670975 l
391.928595 84.693051 l
395.207934 84.703868 l
398.487273 84.695826 l
stroke
grestore
0.800 setlinewidth
0 setlinejoin
0.000 setgray
gsave
57.6 38.016 m
57.6 304.128 l
stroke
grestore
gsave
414.72 38.016 m
414.72 304.128 l
stroke
grestore
gsave
57.6 38.016 m
414.72 38.016 l
stroke
grestore
gsave
57.6 304.128 m
414.72 304.128 l
stroke
grestore
1.000 setlinewidth
0 setlinecap
0.800 setgray
gsave
174.574062 95.79075 m
297.745937 95.79075 l
299.079271 95.79075 299.745937 96.457417 299.745937 97.79075 c
299.745937 244.35325 l
299.745937 245.686583 299.079271 246.35325 297.745937 246.35325 c
174.574062 246.35325 l
173.240729 246.35325 172.574062 245.686583 172.574062 244.35325 c
172.574062 97.79075 l
172.574062 96.457417 173.240729 95.79075 174.574062 95.79075 c
cl
gsave
1.000 setgray
fill
grestore
stroke
grestore
1.500 setlinewidth
1 setlinejoin
2 setlinecap
0.122 0.467 0.706 setrgbcolor
gsave
176.574062 238.2595 m
196.574062 238.2595 l
stroke
grestore
0.000 setgray
gsave
204.574062 234.759500 translate
0.000000 rotate
0.000000 0 m /m glyphshow
9.741211 0 m /o glyphshow
15.859375 0 m /d glyphshow
22.207031 0 m /e glyphshow
28.359375 0 m /l glyphshow
31.137695 0 m /one glyphshow
37.500000 0 m /underscore glyphshow
42.500000 0 m /one glyphshow
grestore
1.000 0.498 0.055 setrgbcolor
gsave
176.574062 223.306375 m
196.574062 223.306375 l
stroke
grestore
0.000 setgray
gsave
204.574062 219.806375 translate
0.000000 rotate
0.000000 0 m /m glyphshow
9.741211 0 m /o glyphshow
15.859375 0 m /d glyphshow
22.207031 0 m /e glyphshow
28.359375 0 m /l glyphshow
31.137695 0 m /one glyphshow
37.500000 0 m /underscore glyphshow
42.500000 0 m /two glyphshow
48.862305 0 m /five glyphshow
55.224609 0 m /six glyphshow
grestore
0.173 0.627 0.173 setrgbcolor
gsave
176.574062 208.35325 m
196.574062 208.35325 l
stroke
grestore
0.000 setgray
gsave
204.574062 204.853250 translate
0.000000 rotate
0.000000 0 m /m glyphshow
9.741211 0 m /o glyphshow
15.859375 0 m /d glyphshow
22.207031 0 m /e glyphshow
28.359375 0 m /l glyphshow
31.137695 0 m /one glyphshow
37.500000 0 m /underscore glyphshow
42.500000 0 m /f glyphshow
46.020508 0 m /u glyphshow
52.358398 0 m /l glyphshow
55.136719 0 m /l glyphshow
57.915039 0 m /underscore glyphshow
62.915039 0 m /b glyphshow
69.262695 0 m /a glyphshow
75.390625 0 m /t glyphshow
79.311523 0 m /c glyphshow
84.809570 0 m /h glyphshow
grestore
0.839 0.153 0.157 setrgbcolor
gsave
176.574062 193.400125 m
196.574062 193.400125 l
stroke
grestore
0.000 setgray
gsave
204.574062 189.900125 translate
0.000000 rotate
0.000000 0 m /m glyphshow
9.741211 0 m /o glyphshow
15.859375 0 m /d glyphshow
22.207031 0 m /e glyphshow
28.359375 0 m /l glyphshow
31.137695 0 m /two glyphshow
grestore
0.580 0.404 0.741 setrgbcolor
gsave
176.574062 178.72825 m
196.574062 178.72825 l
stroke
grestore
0.000 setgray
gsave
204.574062 175.228250 translate
0.000000 rotate
0.000000 0 m /m glyphshow
9.741211 0 m /o glyphshow
15.859375 0 m /d glyphshow
22.207031 0 m /e glyphshow
28.359375 0 m /l glyphshow
31.137695 0 m /three glyphshow
grestore
0.549 0.337 0.294 setrgbcolor
gsave
176.574062 164.056375 m
196.574062 164.056375 l
stroke
grestore
0.000 setgray
gsave
204.574062 160.556375 translate
0.000000 rotate
0.000000 0 m /m glyphshow
9.741211 0 m /o glyphshow
15.859375 0 m /d glyphshow
22.207031 0 m /e glyphshow
28.359375 0 m /l glyphshow
31.137695 0 m /four glyphshow
grestore
0.890 0.467 0.761 setrgbcolor
gsave
176.574062 149.3845 m
196.574062 149.3845 l
stroke
grestore
0.000 setgray
gsave
204.574062 145.884500 translate
0.000000 rotate
0.000000 0 m /m glyphshow
9.741211 0 m /o glyphshow
15.859375 0 m /d glyphshow
22.207031 0 m /e glyphshow
28.359375 0 m /l glyphshow
31.137695 0 m /five glyphshow
grestore
0.498 setgray
gsave
176.574062 134.712625 m
196.574062 134.712625 l
stroke
grestore
0.000 setgray
gsave
204.574062 131.212625 translate
0.000000 rotate
0.000000 0 m /m glyphshow
9.741211 0 m /o glyphshow
15.859375 0 m /d glyphshow
22.207031 0 m /e glyphshow
28.359375 0 m /l glyphshow
31.137695 0 m /six glyphshow
grestore
0.737 0.741 0.133 setrgbcolor
gsave
176.574062 120.04075 m
196.574062 120.04075 l
stroke
grestore
0.000 setgray
gsave
204.574062 116.540750 translate
0.000000 rotate
0.000000 0 m /m glyphshow
9.741211 0 m /o glyphshow
15.859375 0 m /d glyphshow
22.207031 0 m /e glyphshow
28.359375 0 m /l glyphshow
31.137695 0 m /seven glyphshow
grestore
0.090 0.745 0.812 setrgbcolor
gsave
176.574062 105.368875 m
196.574062 105.368875 l
stroke
grestore
0.000 setgray
gsave
204.574062 101.868875 translate
0.000000 rotate
0.000000 0 m /m glyphshow
9.741211 0 m /o glyphshow
15.859375 0 m /d glyphshow
22.207031 0 m /e glyphshow
28.359375 0 m /l glyphshow
31.137695 0 m /eight glyphshow
grestore

end
showpage
