%!PS-Adobe-3.0 EPSF-3.0
%%Title: training_loss_best_model.eps
%%Creator: matplotlib version 3.3.4, http://matplotlib.org/
%%CreationDate: Sat Aug 28 16:17:51 2021
%%Orientation: portrait
%%BoundingBox: 75.6 223.20000000000002 536.4 568.8
%%EndComments
%%BeginProlog
/mpldict 8 dict def
mpldict begin
/m { moveto } bind def
/l { lineto } bind def
/r { rlineto } bind def
/c { curveto } bind def
/cl { closepath } bind def
/box {
      m
      1 index 0 r
      0 exch r
      neg 0 r
      cl
    } bind def
/clipbox {
      box
      clip
      newpath
    } bind def
%!PS-Adobe-3.0 Resource-Font
%%Title: DejaVu Sans
%%Copyright: Copyright (c) 2003 by Bitstream, Inc. All Rights Reserved. Copyright (c) 2006 by Tavmjong Bah. All Rights Reserved. DejaVu changes are in public domain 
%%Creator: Converted from TrueType to type 3 by PPR
25 dict begin
/_d{bind def}bind def
/_m{moveto}_d
/_l{lineto}_d
/_cl{closepath eofill}_d
/_c{curveto}_d
/_sc{7 -1 roll{setcachedevice}{pop pop pop pop pop pop}ifelse}_d
/_e{exec}_d
/FontName /DejaVuSans def
/PaintType 0 def
/FontMatrix[.001 0 0 .001 0 0]def
/FontBBox[-1021 -463 1793 1232]def
/FontType 3 def
/Encoding [ /space /zero /one /two /three /four /five /six /E /T /a /c /g /h /i /l /n /o /p /r /s /minus ] def
/FontInfo 10 dict dup begin
/FamilyName (DejaVu Sans) def
/FullName (DejaVu Sans) def
/Notice (Copyright (c) 2003 by Bitstream, Inc. All Rights Reserved. Copyright (c) 2006 by Tavmjong Bah. All Rights Reserved. DejaVu changes are in public domain ) def
/Weight (Book) def
/Version (Version 2.35) def
/ItalicAngle 0.0 def
/isFixedPitch false def
/UnderlinePosition -130 def
/UnderlineThickness 90 def
end readonly def
/CharStrings 23 dict dup begin
/.notdef 0 def
/space{318 0 0 0 0 0 _sc
}_d
/zero{636 0 66 -13 570 742 _sc
318 664 _m
267 664 229 639 203 589 _c
177 539 165 464 165 364 _c
165 264 177 189 203 139 _c
229 89 267 64 318 64 _c
369 64 407 89 433 139 _c
458 189 471 264 471 364 _c
471 464 458 539 433 589 _c
407 639 369 664 318 664 _c
318 742 _m
399 742 461 709 505 645 _c
548 580 570 486 570 364 _c
570 241 548 147 505 83 _c
461 19 399 -13 318 -13 _c
236 -13 173 19 130 83 _c
87 147 66 241 66 364 _c
66 486 87 580 130 645 _c
173 709 236 742 318 742 _c
_cl}_d
/one{636 0 110 0 544 729 _sc
124 83 _m
285 83 _l
285 639 _l
110 604 _l
110 694 _l
284 729 _l
383 729 _l
383 83 _l
544 83 _l
544 0 _l
124 0 _l
124 83 _l
_cl}_d
/two{{636 0 73 0 536 742 _sc
192 83 _m
536 83 _l
536 0 _l
73 0 _l
73 83 _l
110 121 161 173 226 239 _c
290 304 331 346 348 365 _c
380 400 402 430 414 455 _c
426 479 433 504 433 528 _c
433 566 419 598 392 622 _c
365 646 330 659 286 659 _c
255 659 222 653 188 643 _c
154 632 117 616 78 594 _c
78 694 _l
118 710 155 722 189 730 _c
223 738 255 742 284 742 _c
}_e{359 742 419 723 464 685 _c
509 647 532 597 532 534 _c
532 504 526 475 515 449 _c
504 422 484 390 454 354 _c
446 344 420 317 376 272 _c
332 227 271 164 192 83 _c
_cl}_e}_d
/three{{636 0 76 -13 556 742 _sc
406 393 _m
453 383 490 362 516 330 _c
542 298 556 258 556 212 _c
556 140 531 84 482 45 _c
432 6 362 -13 271 -13 _c
240 -13 208 -10 176 -4 _c
144 1 110 10 76 22 _c
76 117 _l
103 101 133 89 166 81 _c
198 73 232 69 268 69 _c
330 69 377 81 409 105 _c
441 129 458 165 458 212 _c
458 254 443 288 413 312 _c
383 336 341 349 287 349 _c
}_e{202 349 _l
202 430 _l
291 430 _l
339 430 376 439 402 459 _c
428 478 441 506 441 543 _c
441 580 427 609 401 629 _c
374 649 336 659 287 659 _c
260 659 231 656 200 650 _c
169 644 135 635 98 623 _c
98 711 _l
135 721 170 729 203 734 _c
235 739 266 742 296 742 _c
370 742 429 725 473 691 _c
517 657 539 611 539 553 _c
539 513 527 479 504 451 _c
481 423 448 403 406 393 _c
_cl}_e}_d
/four{636 0 49 0 580 729 _sc
378 643 _m
129 254 _l
378 254 _l
378 643 _l
352 729 _m
476 729 _l
476 254 _l
580 254 _l
580 172 _l
476 172 _l
476 0 _l
378 0 _l
378 172 _l
49 172 _l
49 267 _l
352 729 _l
_cl}_d
/five{{636 0 77 -13 549 729 _sc
108 729 _m
495 729 _l
495 646 _l
198 646 _l
198 467 _l
212 472 227 476 241 478 _c
255 480 270 482 284 482 _c
365 482 429 459 477 415 _c
525 370 549 310 549 234 _c
549 155 524 94 475 51 _c
426 8 357 -13 269 -13 _c
238 -13 207 -10 175 -6 _c
143 -1 111 6 77 17 _c
77 116 _l
106 100 136 88 168 80 _c
199 72 232 69 267 69 _c
}_e{323 69 368 83 401 113 _c
433 143 450 183 450 234 _c
450 284 433 324 401 354 _c
368 384 323 399 267 399 _c
241 399 214 396 188 390 _c
162 384 135 375 108 363 _c
108 729 _l
_cl}_e}_d
/six{{636 0 70 -13 573 742 _sc
330 404 _m
286 404 251 388 225 358 _c
199 328 186 286 186 234 _c
186 181 199 139 225 109 _c
251 79 286 64 330 64 _c
374 64 409 79 435 109 _c
461 139 474 181 474 234 _c
474 286 461 328 435 358 _c
409 388 374 404 330 404 _c
526 713 _m
526 623 _l
501 635 476 644 451 650 _c
425 656 400 659 376 659 _c
310 659 260 637 226 593 _c
}_e{192 549 172 482 168 394 _c
187 422 211 444 240 459 _c
269 474 301 482 336 482 _c
409 482 467 459 509 415 _c
551 371 573 310 573 234 _c
573 159 550 99 506 54 _c
462 9 403 -13 330 -13 _c
246 -13 181 19 137 83 _c
92 147 70 241 70 364 _c
70 479 97 571 152 639 _c
206 707 280 742 372 742 _c
396 742 421 739 447 735 _c
472 730 498 723 526 713 _c
_cl}_e}_d
/E{632 0 98 0 568 729 _sc
98 729 _m
559 729 _l
559 646 _l
197 646 _l
197 430 _l
544 430 _l
544 347 _l
197 347 _l
197 83 _l
568 83 _l
568 0 _l
98 0 _l
98 729 _l
_cl}_d
/T{611 0 -2 0 614 729 _sc
-2 729 _m
614 729 _l
614 646 _l
355 646 _l
355 0 _l
256 0 _l
256 646 _l
-2 646 _l
-2 729 _l
_cl}_d
/a{{613 0 60 -13 522 560 _sc
343 275 _m
270 275 220 266 192 250 _c
164 233 150 205 150 165 _c
150 133 160 107 181 89 _c
202 70 231 61 267 61 _c
317 61 357 78 387 114 _c
417 149 432 196 432 255 _c
432 275 _l
343 275 _l
522 312 _m
522 0 _l
432 0 _l
432 83 _l
411 49 385 25 355 10 _c
325 -5 287 -13 243 -13 _c
187 -13 142 2 109 33 _c
76 64 60 106 60 159 _c
}_e{60 220 80 266 122 298 _c
163 329 224 345 306 345 _c
432 345 _l
432 354 _l
432 395 418 427 391 450 _c
364 472 326 484 277 484 _c
245 484 215 480 185 472 _c
155 464 127 453 100 439 _c
100 522 _l
132 534 164 544 195 550 _c
226 556 256 560 286 560 _c
365 560 424 539 463 498 _c
502 457 522 395 522 312 _c
_cl}_e}_d
/c{{550 0 55 -13 488 560 _sc
488 526 _m
488 442 _l
462 456 437 466 411 473 _c
385 480 360 484 334 484 _c
276 484 230 465 198 428 _c
166 391 150 339 150 273 _c
150 206 166 154 198 117 _c
230 80 276 62 334 62 _c
360 62 385 65 411 72 _c
437 79 462 90 488 104 _c
488 21 _l
462 9 436 0 410 -5 _c
383 -10 354 -13 324 -13 _c
242 -13 176 12 128 64 _c
}_e{79 115 55 185 55 273 _c
55 362 79 432 128 483 _c
177 534 244 560 330 560 _c
358 560 385 557 411 551 _c
437 545 463 537 488 526 _c
_cl}_e}_d
/g{{635 0 55 -207 544 560 _sc
454 280 _m
454 344 440 395 414 431 _c
387 467 349 485 301 485 _c
253 485 215 467 188 431 _c
161 395 148 344 148 280 _c
148 215 161 165 188 129 _c
215 93 253 75 301 75 _c
349 75 387 93 414 129 _c
440 165 454 215 454 280 _c
544 68 _m
544 -24 523 -93 482 -139 _c
440 -184 377 -207 292 -207 _c
260 -207 231 -204 203 -200 _c
175 -195 147 -188 121 -178 _c
}_e{121 -91 _l
147 -105 173 -115 199 -122 _c
225 -129 251 -133 278 -133 _c
336 -133 380 -117 410 -87 _c
439 -56 454 -10 454 52 _c
454 96 _l
435 64 411 40 382 24 _c
353 8 319 0 279 0 _c
211 0 157 25 116 76 _c
75 127 55 195 55 280 _c
55 364 75 432 116 483 _c
157 534 211 560 279 560 _c
319 560 353 552 382 536 _c
411 520 435 496 454 464 _c
454 547 _l
544 547 _l
}_e{544 68 _l
_cl}_e}_d
/h{634 0 91 0 549 760 _sc
549 330 _m
549 0 _l
459 0 _l
459 327 _l
459 379 448 417 428 443 _c
408 469 378 482 338 482 _c
289 482 251 466 223 435 _c
195 404 181 362 181 309 _c
181 0 _l
91 0 _l
91 760 _l
181 760 _l
181 462 _l
202 494 227 519 257 535 _c
286 551 320 560 358 560 _c
420 560 468 540 500 501 _c
532 462 549 405 549 330 _c
_cl}_d
/i{278 0 94 0 184 760 _sc
94 547 _m
184 547 _l
184 0 _l
94 0 _l
94 547 _l
94 760 _m
184 760 _l
184 646 _l
94 646 _l
94 760 _l
_cl}_d
/l{278 0 94 0 184 760 _sc
94 760 _m
184 760 _l
184 0 _l
94 0 _l
94 760 _l
_cl}_d
/n{634 0 91 0 549 560 _sc
549 330 _m
549 0 _l
459 0 _l
459 327 _l
459 379 448 417 428 443 _c
408 469 378 482 338 482 _c
289 482 251 466 223 435 _c
195 404 181 362 181 309 _c
181 0 _l
91 0 _l
91 547 _l
181 547 _l
181 462 _l
202 494 227 519 257 535 _c
286 551 320 560 358 560 _c
420 560 468 540 500 501 _c
532 462 549 405 549 330 _c
_cl}_d
/o{612 0 55 -13 557 560 _sc
306 484 _m
258 484 220 465 192 427 _c
164 389 150 338 150 273 _c
150 207 163 156 191 118 _c
219 80 257 62 306 62 _c
354 62 392 80 420 118 _c
448 156 462 207 462 273 _c
462 337 448 389 420 427 _c
392 465 354 484 306 484 _c
306 560 _m
384 560 445 534 490 484 _c
534 433 557 363 557 273 _c
557 183 534 113 490 63 _c
445 12 384 -13 306 -13 _c
227 -13 165 12 121 63 _c
77 113 55 183 55 273 _c
55 363 77 433 121 484 _c
165 534 227 560 306 560 _c
_cl}_d
/p{{635 0 91 -207 580 560 _sc
181 82 _m
181 -207 _l
91 -207 _l
91 547 _l
181 547 _l
181 464 _l
199 496 223 520 252 536 _c
281 552 316 560 356 560 _c
422 560 476 533 518 481 _c
559 428 580 359 580 273 _c
580 187 559 117 518 65 _c
476 13 422 -13 356 -13 _c
316 -13 281 -5 252 10 _c
223 25 199 49 181 82 _c
487 273 _m
487 339 473 390 446 428 _c
418 466 381 485 334 485 _c
}_e{286 485 249 466 222 428 _c
194 390 181 339 181 273 _c
181 207 194 155 222 117 _c
249 79 286 61 334 61 _c
381 61 418 79 446 117 _c
473 155 487 207 487 273 _c
_cl}_e}_d
/r{411 0 91 0 411 560 _sc
411 463 _m
401 469 390 473 378 476 _c
366 478 353 480 339 480 _c
288 480 249 463 222 430 _c
194 397 181 350 181 288 _c
181 0 _l
91 0 _l
91 547 _l
181 547 _l
181 462 _l
199 495 224 520 254 536 _c
284 552 321 560 365 560 _c
371 560 378 559 386 559 _c
393 558 401 557 411 555 _c
411 463 _l
_cl}_d
/s{{521 0 54 -13 472 560 _sc
443 531 _m
443 446 _l
417 458 391 468 364 475 _c
336 481 308 485 279 485 _c
234 485 200 478 178 464 _c
156 450 145 430 145 403 _c
145 382 153 366 169 354 _c
185 342 217 330 265 320 _c
296 313 _l
360 299 405 279 432 255 _c
458 230 472 195 472 151 _c
472 100 452 60 412 31 _c
372 1 316 -13 246 -13 _c
216 -13 186 -10 154 -5 _c
}_e{122 0 89 8 54 20 _c
54 113 _l
87 95 120 82 152 74 _c
184 65 216 61 248 61 _c
290 61 323 68 346 82 _c
368 96 380 117 380 144 _c
380 168 371 187 355 200 _c
339 213 303 226 247 238 _c
216 245 _l
160 257 119 275 95 299 _c
70 323 58 356 58 399 _c
58 450 76 490 112 518 _c
148 546 200 560 268 560 _c
301 560 332 557 362 552 _c
391 547 418 540 443 531 _c
}_e{_cl}_e}_d
/minus{838 0 106 272 732 355 _sc
106 355 _m
732 355 _l
732 272 _l
106 272 _l
106 355 _l
_cl}_d
end readonly def

/BuildGlyph
 {exch begin
 CharStrings exch
 2 copy known not{pop /.notdef}if
 true 3 1 roll get exec
 end}_d

/BuildChar {
 1 index /Encoding get exch get
 1 index /BuildGlyph get exec
}_d

FontName currentdict end definefont pop
end
%%EndProlog
mpldict begin
75.6 223.2 translate
460.8 345.6 0 0 clipbox
gsave
0 0 m
460.8 0 l
460.8 345.6 l
0 345.6 l
cl
1.000 setgray
fill
grestore
gsave
57.6 38.016 m
414.72 38.016 l
414.72 304.128 l
57.6 304.128 l
cl
1.000 setgray
fill
grestore
0.800 setlinewidth
1 setlinejoin
2 setlinecap
[] 0 setdash
0.690 setgray
gsave
357.1 266.1 57.6 38.02 clipbox
73.832727 38.016 m
73.832727 304.128 l
stroke
grestore
0 setlinecap
0.000 setgray
gsave
/o {
gsave
newpath
translate
0.8 setlinewidth
1 setlinejoin
0 setlinecap
0 0 m
0 -3.5 l

gsave
0.000 setgray
fill
grestore
stroke
grestore
} bind def
73.8327 38.016 o
grestore
/DejaVuSans findfont
10.000 scalefont
setfont
gsave
70.653040 23.422250 translate
0.000000 rotate
0.000000 0 m /zero glyphshow
grestore
2 setlinecap
0.690 setgray
gsave
357.1 266.1 57.6 38.02 clipbox
129.329231 38.016 m
129.329231 304.128 l
stroke
grestore
0 setlinecap
0.000 setgray
gsave
/o {
gsave
newpath
translate
0.8 setlinewidth
1 setlinejoin
0 setlinecap
0 0 m
0 -3.5 l

gsave
0.000 setgray
fill
grestore
stroke
grestore
} bind def
129.329 38.016 o
grestore
gsave
119.790168 23.422250 translate
0.000000 rotate
0.000000 0 m /one glyphshow
6.362305 0 m /zero glyphshow
12.724609 0 m /zero glyphshow
grestore
2 setlinecap
0.690 setgray
gsave
357.1 266.1 57.6 38.02 clipbox
184.825734 38.016 m
184.825734 304.128 l
stroke
grestore
0 setlinecap
0.000 setgray
gsave
/o {
gsave
newpath
translate
0.8 setlinewidth
1 setlinejoin
0 setlinecap
0 0 m
0 -3.5 l

gsave
0.000 setgray
fill
grestore
stroke
grestore
} bind def
184.826 38.016 o
grestore
gsave
175.286672 23.422250 translate
0.000000 rotate
0.000000 0 m /two glyphshow
6.362305 0 m /zero glyphshow
12.724609 0 m /zero glyphshow
grestore
2 setlinecap
0.690 setgray
gsave
357.1 266.1 57.6 38.02 clipbox
240.322238 38.016 m
240.322238 304.128 l
stroke
grestore
0 setlinecap
0.000 setgray
gsave
/o {
gsave
newpath
translate
0.8 setlinewidth
1 setlinejoin
0 setlinecap
0 0 m
0 -3.5 l

gsave
0.000 setgray
fill
grestore
stroke
grestore
} bind def
240.322 38.016 o
grestore
gsave
230.783175 23.422250 translate
0.000000 rotate
0.000000 0 m /three glyphshow
6.362305 0 m /zero glyphshow
12.724609 0 m /zero glyphshow
grestore
2 setlinecap
0.690 setgray
gsave
357.1 266.1 57.6 38.02 clipbox
295.818741 38.016 m
295.818741 304.128 l
stroke
grestore
0 setlinecap
0.000 setgray
gsave
/o {
gsave
newpath
translate
0.8 setlinewidth
1 setlinejoin
0 setlinecap
0 0 m
0 -3.5 l

gsave
0.000 setgray
fill
grestore
stroke
grestore
} bind def
295.819 38.016 o
grestore
gsave
286.279679 23.422250 translate
0.000000 rotate
0.000000 0 m /four glyphshow
6.362305 0 m /zero glyphshow
12.724609 0 m /zero glyphshow
grestore
2 setlinecap
0.690 setgray
gsave
357.1 266.1 57.6 38.02 clipbox
351.315245 38.016 m
351.315245 304.128 l
stroke
grestore
0 setlinecap
0.000 setgray
gsave
/o {
gsave
newpath
translate
0.8 setlinewidth
1 setlinejoin
0 setlinecap
0 0 m
0 -3.5 l

gsave
0.000 setgray
fill
grestore
stroke
grestore
} bind def
351.315 38.016 o
grestore
gsave
341.776182 23.422250 translate
0.000000 rotate
0.000000 0 m /five glyphshow
6.362305 0 m /zero glyphshow
12.724609 0 m /zero glyphshow
grestore
2 setlinecap
0.690 setgray
gsave
357.1 266.1 57.6 38.02 clipbox
406.811748 38.016 m
406.811748 304.128 l
stroke
grestore
0 setlinecap
0.000 setgray
gsave
/o {
gsave
newpath
translate
0.8 setlinewidth
1 setlinejoin
0 setlinecap
0 0 m
0 -3.5 l

gsave
0.000 setgray
fill
grestore
stroke
grestore
} bind def
406.812 38.016 o
grestore
gsave
397.272686 23.422250 translate
0.000000 rotate
0.000000 0 m /six glyphshow
6.362305 0 m /zero glyphshow
12.724609 0 m /zero glyphshow
grestore
gsave
220.847500 9.750375 translate
0.000000 rotate
0.000000 0 m /E glyphshow
6.318359 0 m /p glyphshow
12.666016 0 m /o glyphshow
18.784180 0 m /c glyphshow
24.282227 0 m /h glyphshow
grestore
2 setlinecap
0.690 setgray
gsave
357.1 266.1 57.6 38.02 clipbox
57.6 79.012263 m
414.72 79.012263 l
stroke
grestore
0 setlinecap
0.000 setgray
gsave
/o {
gsave
newpath
translate
0.8 setlinewidth
1 setlinejoin
0 setlinecap
-0 0 m
-3.5 0 l

gsave
0.000 setgray
fill
grestore
stroke
grestore
} bind def
57.6 79.0123 o
grestore
gsave
26.600000 75.051325 translate
0.000000 rotate
/DejaVuSans findfont
10.0 scalefont
setfont
0.000000 0.064063 moveto
/one glyphshow
6.362305 0.064063 moveto
/zero glyphshow
/DejaVuSans findfont
7.0 scalefont
setfont
12.820312 3.892188 moveto
/minus glyphshow
18.685547 3.892188 moveto
/one glyphshow

grestore
2 setlinecap
0.690 setgray
gsave
357.1 266.1 57.6 38.02 clipbox
57.6 195.746045 m
414.72 195.746045 l
stroke
grestore
0 setlinecap
0.000 setgray
gsave
/o {
gsave
newpath
translate
0.8 setlinewidth
1 setlinejoin
0 setlinecap
-0 0 m
-3.5 0 l

gsave
0.000 setgray
fill
grestore
stroke
grestore
} bind def
57.6 195.746 o
grestore
gsave
32.600000 191.285108 translate
0.000000 rotate
/DejaVuSans findfont
10.0 scalefont
setfont
0.000000 0.976562 moveto
/one glyphshow
6.362305 0.976562 moveto
/zero glyphshow
/DejaVuSans findfont
7.0 scalefont
setfont
12.820312 4.804688 moveto
/zero glyphshow

grestore
0.600 setlinewidth
gsave
/o {
gsave
newpath
translate
0.6 setlinewidth
1 setlinejoin
0 setlinecap
-0 0 m
-2 0 l

gsave
0.000 setgray
fill
grestore
stroke
grestore
} bind def
57.6 43.8719 o
grestore
gsave
/o {
gsave
newpath
translate
0.6 setlinewidth
1 setlinejoin
0 setlinecap
-0 0 m
-2 0 l

gsave
0.000 setgray
fill
grestore
stroke
grestore
} bind def
57.6 53.115 o
grestore
gsave
/o {
gsave
newpath
translate
0.6 setlinewidth
1 setlinejoin
0 setlinecap
-0 0 m
-2 0 l

gsave
0.000 setgray
fill
grestore
stroke
grestore
} bind def
57.6 60.93 o
grestore
gsave
/o {
gsave
newpath
translate
0.6 setlinewidth
1 setlinejoin
0 setlinecap
-0 0 m
-2 0 l

gsave
0.000 setgray
fill
grestore
stroke
grestore
} bind def
57.6 67.6996 o
grestore
gsave
/o {
gsave
newpath
translate
0.6 setlinewidth
1 setlinejoin
0 setlinecap
-0 0 m
-2 0 l

gsave
0.000 setgray
fill
grestore
stroke
grestore
} bind def
57.6 73.6708 o
grestore
gsave
/o {
gsave
newpath
translate
0.6 setlinewidth
1 setlinejoin
0 setlinecap
-0 0 m
-2 0 l

gsave
0.000 setgray
fill
grestore
stroke
grestore
} bind def
57.6 114.153 o
grestore
gsave
/o {
gsave
newpath
translate
0.6 setlinewidth
1 setlinejoin
0 setlinecap
-0 0 m
-2 0 l

gsave
0.000 setgray
fill
grestore
stroke
grestore
} bind def
57.6 134.708 o
grestore
gsave
/o {
gsave
newpath
translate
0.6 setlinewidth
1 setlinejoin
0 setlinecap
-0 0 m
-2 0 l

gsave
0.000 setgray
fill
grestore
stroke
grestore
} bind def
57.6 149.293 o
grestore
gsave
/o {
gsave
newpath
translate
0.6 setlinewidth
1 setlinejoin
0 setlinecap
-0 0 m
-2 0 l

gsave
0.000 setgray
fill
grestore
stroke
grestore
} bind def
57.6 160.606 o
grestore
gsave
/o {
gsave
newpath
translate
0.6 setlinewidth
1 setlinejoin
0 setlinecap
-0 0 m
-2 0 l

gsave
0.000 setgray
fill
grestore
stroke
grestore
} bind def
57.6 169.849 o
grestore
gsave
/o {
gsave
newpath
translate
0.6 setlinewidth
1 setlinejoin
0 setlinecap
-0 0 m
-2 0 l

gsave
0.000 setgray
fill
grestore
stroke
grestore
} bind def
57.6 177.664 o
grestore
gsave
/o {
gsave
newpath
translate
0.6 setlinewidth
1 setlinejoin
0 setlinecap
-0 0 m
-2 0 l

gsave
0.000 setgray
fill
grestore
stroke
grestore
} bind def
57.6 184.433 o
grestore
gsave
/o {
gsave
newpath
translate
0.6 setlinewidth
1 setlinejoin
0 setlinecap
-0 0 m
-2 0 l

gsave
0.000 setgray
fill
grestore
stroke
grestore
} bind def
57.6 190.405 o
grestore
gsave
/o {
gsave
newpath
translate
0.6 setlinewidth
1 setlinejoin
0 setlinecap
-0 0 m
-2 0 l

gsave
0.000 setgray
fill
grestore
stroke
grestore
} bind def
57.6 230.886 o
grestore
gsave
/o {
gsave
newpath
translate
0.6 setlinewidth
1 setlinejoin
0 setlinecap
-0 0 m
-2 0 l

gsave
0.000 setgray
fill
grestore
stroke
grestore
} bind def
57.6 251.442 o
grestore
gsave
/o {
gsave
newpath
translate
0.6 setlinewidth
1 setlinejoin
0 setlinecap
-0 0 m
-2 0 l

gsave
0.000 setgray
fill
grestore
stroke
grestore
} bind def
57.6 266.027 o
grestore
gsave
/o {
gsave
newpath
translate
0.6 setlinewidth
1 setlinejoin
0 setlinecap
-0 0 m
-2 0 l

gsave
0.000 setgray
fill
grestore
stroke
grestore
} bind def
57.6 277.339 o
grestore
gsave
/o {
gsave
newpath
translate
0.6 setlinewidth
1 setlinejoin
0 setlinecap
-0 0 m
-2 0 l

gsave
0.000 setgray
fill
grestore
stroke
grestore
} bind def
57.6 286.583 o
grestore
gsave
/o {
gsave
newpath
translate
0.6 setlinewidth
1 setlinejoin
0 setlinecap
-0 0 m
-2 0 l

gsave
0.000 setgray
fill
grestore
stroke
grestore
} bind def
57.6 294.398 o
grestore
gsave
/o {
gsave
newpath
translate
0.6 setlinewidth
1 setlinejoin
0 setlinecap
-0 0 m
-2 0 l

gsave
0.000 setgray
fill
grestore
stroke
grestore
} bind def
57.6 301.167 o
grestore
gsave
20.521875 140.087625 translate
90.000000 rotate
0.000000 0 m /T glyphshow
4.608398 0 m /r glyphshow
8.719727 0 m /a glyphshow
14.847656 0 m /i glyphshow
17.625977 0 m /n glyphshow
23.963867 0 m /i glyphshow
26.742188 0 m /n glyphshow
33.080078 0 m /g glyphshow
39.427734 0 m /space glyphshow
42.606445 0 m /l glyphshow
45.384766 0 m /o glyphshow
51.502930 0 m /s glyphshow
56.712891 0 m /s glyphshow
grestore
1.500 setlinewidth
2 setlinecap
0.122 0.467 0.706 setrgbcolor
gsave
357.1 266.1 57.6 38.02 clipbox
73.832727 292.032 m
74.387692 199.682489 l
74.942657 175.74577 l
75.497622 162.694286 l
76.607552 145.545608 l
77.717483 133.323833 l
79.937343 117.443896 l
80.492308 114.466592 l
81.047273 110.481335 l
81.602238 107.682627 l
82.157203 104.022108 l
82.712168 102.611045 l
83.267133 99.561425 l
83.822098 97.551582 l
84.377063 94.940503 l
84.932028 93.136028 l
85.486993 91.775488 l
86.041958 88.236996 l
86.596923 87.149551 l
87.706853 83.440089 l
88.261818 81.886539 l
88.816783 81.424339 l
89.371748 78.386657 l
89.926713 78.973926 l
90.481678 76.713514 l
91.036643 75.770013 l
91.591608 73.027977 l
92.146573 72.80869 l
92.701538 71.647475 l
93.256503 71.372793 l
93.811469 71.442715 l
94.921399 69.168127 l
95.476364 68.268748 l
96.031329 66.904795 l
96.586294 66.143893 l
97.141259 65.984258 l
97.696224 65.623786 l
98.251189 65.071505 l
98.806154 66.0963 l
99.361119 65.137456 l
99.916084 64.594267 l
100.471049 62.511518 l
101.026014 64.420239 l
101.580979 62.911905 l
102.135944 63.128839 l
102.690909 61.587883 l
103.245874 61.791704 l
103.800839 61.417865 l
104.355804 62.628201 l
105.465734 60.000099 l
106.020699 60.045805 l
106.575664 60.55861 l
107.130629 59.434284 l
107.685594 60.849961 l
108.240559 59.395332 l
108.795524 58.55218 l
109.35049 59.108487 l
109.905455 59.453404 l
110.46042 58.960129 l
111.015385 60.146579 l
112.125315 58.453271 l
112.68028 58.864937 l
113.235245 58.1425 l
113.79021 58.597909 l
114.345175 59.804591 l
114.90014 57.566921 l
116.01007 59.280941 l
116.565035 57.368971 l
117.12 57.987956 l
117.674965 59.37846 l
118.22993 59.137034 l
118.784895 57.566448 l
119.33986 59.235556 l
119.894825 58.620854 l
120.44979 56.820602 l
121.004755 58.212933 l
121.55972 57.034705 l
122.114685 56.805421 l
122.66965 57.852207 l
123.224615 57.947012 l
123.77958 56.454128 l
124.334545 56.729551 l
124.88951 57.419405 l
125.444476 55.978534 l
125.999441 56.947698 l
126.554406 56.289759 l
127.109371 57.153959 l
127.664336 56.28601 l
128.219301 57.0059 l
128.774266 57.250988 l
129.329231 54.783283 l
129.884196 56.334036 l
130.439161 56.252469 l
130.994126 55.99952 l
131.549091 57.033236 l
132.104056 56.136174 l
132.659021 56.460022 l
133.768951 56.319317 l
134.323916 56.692401 l
134.878881 54.742225 l
135.988811 55.708387 l
136.543776 57.285238 l
137.098741 55.235275 l
138.208671 54.741472 l
138.763636 55.907285 l
139.318601 55.571371 l
139.873566 55.492849 l
140.428531 54.616359 l
140.983497 55.009311 l
141.538462 54.742203 l
142.093427 54.327861 l
142.648392 57.109037 l
143.203357 54.666767 l
143.758322 54.342598 l
144.313287 56.463864 l
144.868252 56.731028 l
145.423217 56.324641 l
145.978182 53.862433 l
146.533147 55.412444 l
147.088112 55.435313 l
147.643077 56.482182 l
148.198042 56.933512 l
148.753007 55.940674 l
149.307972 55.794052 l
149.862937 54.605885 l
150.417902 57.039226 l
150.972867 55.971876 l
151.527832 57.426969 l
152.082797 55.715636 l
152.637762 55.532582 l
153.192727 55.673868 l
153.747692 54.369137 l
154.302657 56.866095 l
154.857622 54.192642 l
155.412587 54.66213 l
155.967552 54.182466 l
156.522517 54.075355 l
157.077483 54.708661 l
157.632448 54.489328 l
158.187413 55.596752 l
158.742378 54.669392 l
159.297343 57.97896 l
159.852308 55.413087 l
160.407273 54.835053 l
160.962238 55.848379 l
161.517203 53.791437 l
162.072168 53.75248 l
162.627133 54.524077 l
163.182098 54.273146 l
163.737063 53.632502 l
164.292028 55.110938 l
164.846993 55.11554 l
165.401958 54.477434 l
165.956923 56.423664 l
167.066853 55.651424 l
167.621818 55.007914 l
168.176783 55.300571 l
168.731748 55.416926 l
169.841678 54.978798 l
170.396643 56.784965 l
171.506573 51.874392 l
172.061538 55.922737 l
172.616503 55.764623 l
173.171469 53.346169 l
173.726434 55.624548 l
174.281399 55.856449 l
174.836364 54.42711 l
175.391329 55.037846 l
175.946294 54.828033 l
176.501259 55.651555 l
177.056224 55.159113 l
177.611189 54.359103 l
178.166154 55.005745 l
178.721119 57.811751 l
179.276084 55.887816 l
179.831049 55.350406 l
180.386014 54.45464 l
180.940979 54.580816 l
181.495944 56.462674 l
182.050909 54.935146 l
182.605874 52.815629 l
183.160839 55.095702 l
183.715804 55.298732 l
184.270769 53.511718 l
184.825734 54.446976 l
185.380699 55.009399 l
185.935664 53.957192 l
186.490629 54.520505 l
187.045594 54.251513 l
187.600559 53.6482 l
188.155524 54.200579 l
188.71049 54.021068 l
189.265455 54.780624 l
189.82042 53.59472 l
190.375385 54.385034 l
190.93035 54.53832 l
191.485315 53.877347 l
192.04028 54.716781 l
192.595245 54.451526 l
193.15021 54.907217 l
193.705175 53.328578 l
194.815105 55.120799 l
195.925035 54.653919 l
196.48 54.489941 l
197.034965 54.735228 l
197.58993 55.152201 l
198.144895 53.789791 l
198.69986 56.747586 l
199.254825 54.710077 l
199.80979 53.315039 l
200.364755 53.236637 l
200.91972 56.334556 l
202.02965 53.075323 l
202.584615 56.581804 l
203.13958 54.742395 l
203.694545 54.401468 l
204.24951 55.061684 l
204.804476 55.426646 l
205.914406 53.090577 l
206.469371 54.137225 l
207.024336 54.668614 l
207.579301 54.28582 l
208.134266 53.435284 l
208.689231 54.241964 l
209.244196 52.733178 l
209.799161 54.007706 l
210.354126 54.093821 l
210.909091 54.061818 l
211.464056 55.467338 l
212.019021 52.82678 l
213.683916 56.229734 l
214.238881 55.090195 l
214.793846 53.621263 l
215.348811 53.90218 l
215.903776 54.474891 l
216.458741 52.041049 l
217.013706 54.983149 l
217.568671 53.386645 l
218.123636 55.69851 l
218.678601 54.807479 l
219.233566 50.73038 l
219.788531 53.96356 l
220.343497 53.244778 l
220.898462 53.834337 l
222.008392 53.788527 l
222.563357 52.887027 l
223.118322 55.113135 l
223.673287 54.388135 l
224.228252 52.450843 l
224.783217 53.154622 l
225.338182 54.498098 l
225.893147 52.90168 l
226.448112 55.166764 l
227.003077 54.892831 l
227.558042 53.419192 l
228.113007 54.48579 l
228.667972 52.310199 l
229.222937 52.84114 l
229.777902 51.891295 l
230.332867 54.876231 l
230.887832 51.593124 l
231.442797 53.099967 l
231.997762 52.057099 l
232.552727 52.285568 l
233.107692 51.66176 l
233.662657 53.132491 l
234.217622 53.138274 l
234.772587 52.953607 l
235.327552 52.568976 l
235.882517 54.037329 l
236.437483 53.195305 l
236.992448 54.754023 l
238.102378 51.903628 l
238.657343 52.269139 l
239.212308 52.98465 l
239.767273 54.120101 l
240.322238 53.522395 l
240.877203 52.00773 l
241.432168 54.424583 l
241.987133 53.882906 l
242.542098 52.485265 l
243.097063 52.321394 l
244.206993 56.216057 l
244.761958 51.426037 l
245.316923 51.291123 l
245.871888 55.328722 l
246.426853 53.912444 l
246.981818 54.635417 l
247.536783 53.973411 l
248.091748 51.5836 l
248.646713 55.944467 l
249.201678 53.962303 l
249.756643 54.524133 l
250.311608 52.083968 l
250.866573 52.507483 l
251.421538 52.654801 l
251.976503 53.427305 l
252.531469 52.739847 l
253.086434 54.161919 l
253.641399 54.131416 l
254.196364 53.127777 l
254.751329 55.039985 l
255.306294 52.455116 l
255.861259 52.821499 l
256.416224 52.022848 l
257.526154 53.419705 l
258.081119 53.500599 l
258.636084 51.970625 l
259.191049 53.903473 l
259.746014 52.344944 l
260.300979 55.031845 l
260.855944 52.943823 l
261.410909 55.131282 l
261.965874 54.715939 l
262.520839 53.347795 l
263.075804 52.951756 l
263.630769 51.759746 l
264.185734 56.032504 l
264.740699 50.665852 l
265.295664 51.618537 l
265.850629 54.225261 l
266.405594 51.496912 l
266.960559 53.900045 l
267.515524 54.322424 l
268.07049 54.968851 l
268.625455 52.988065 l
269.18042 53.212414 l
270.29035 53.933748 l
270.845315 55.551425 l
271.40028 54.924374 l
271.955245 52.705525 l
272.51021 55.090737 l
273.065175 52.000632 l
273.62014 54.144887 l
274.175105 54.125507 l
274.73007 52.803523 l
275.285035 53.884599 l
275.84 53.940422 l
276.394965 52.596328 l
276.94993 53.72743 l
277.504895 52.412785 l
278.614825 53.078174 l
279.16979 54.31058 l
279.724755 51.93852 l
280.27972 55.407227 l
280.834685 52.723257 l
281.38965 53.754855 l
281.944615 52.46918 l
282.49958 52.670503 l
283.054545 53.145894 l
283.60951 51.152256 l
284.164476 52.573802 l
284.719441 52.032888 l
285.274406 51.682416 l
285.829371 55.0459 l
286.384336 52.940169 l
286.939301 55.721424 l
287.494266 50.112 l
288.049231 53.043667 l
289.159161 53.354296 l
289.714126 54.770541 l
290.269091 53.250646 l
290.824056 52.066753 l
291.379021 52.823402 l
291.933986 52.64149 l
292.488951 51.567733 l
293.043916 51.585371 l
293.598881 53.457787 l
294.153846 54.454086 l
294.708811 53.438712 l
295.263776 51.628625 l
295.818741 52.517848 l
296.373706 54.301446 l
296.928671 53.522123 l
297.483636 52.307535 l
298.038601 53.762528 l
298.593566 52.733238 l
299.148531 53.285825 l
299.703497 54.23532 l
300.813427 52.711918 l
301.368392 53.682609 l
301.923357 51.874012 l
302.478322 53.759324 l
303.033287 51.843178 l
303.588252 50.937849 l
304.143217 53.595131 l
304.698182 52.723107 l
305.253147 52.963038 l
305.808112 52.222167 l
306.363077 53.355897 l
306.918042 52.761146 l
307.473007 54.148752 l
308.582937 50.999725 l
310.247832 52.923198 l
310.802797 52.735763 l
311.357762 54.065754 l
311.912727 51.165715 l
312.467692 52.218874 l
313.022657 52.09247 l
313.577622 53.669161 l
314.132587 51.052341 l
314.687552 53.612312 l
315.242517 52.86202 l
315.797483 52.611943 l
316.352448 53.037845 l
316.907413 51.833478 l
317.462378 51.6868 l
318.017343 52.60443 l
318.572308 53.011038 l
319.127273 53.184421 l
319.682238 52.943659 l
320.237203 51.603346 l
320.792168 54.723993 l
321.347133 53.510072 l
321.902098 54.012234 l
322.457063 52.786909 l
323.012028 54.085027 l
323.566993 51.482468 l
324.121958 53.084325 l
324.676923 51.751482 l
325.231888 51.813875 l
325.786853 53.679593 l
326.341818 52.888257 l
326.896783 51.611372 l
327.451748 52.077533 l
328.006713 51.425874 l
328.561678 53.205087 l
329.116643 52.236905 l
329.671608 54.203561 l
330.226573 51.749567 l
330.781538 52.012893 l
331.336503 53.838567 l
331.891469 53.807409 l
332.446434 54.010814 l
333.001399 51.933091 l
333.556364 51.682892 l
334.111329 51.87954 l
334.666294 53.199453 l
335.221259 55.000384 l
335.776224 54.110519 l
336.331189 52.921255 l
336.886154 54.326112 l
337.441119 52.381494 l
337.996084 51.249032 l
338.551049 51.071585 l
339.106014 51.964991 l
339.660979 52.58124 l
340.215944 53.41208 l
340.770909 50.612033 l
341.325874 53.859853 l
341.880839 51.677951 l
342.435804 53.299404 l
342.990769 52.01124 l
343.545734 51.621189 l
344.100699 52.066544 l
344.655664 52.688386 l
345.210629 53.752586 l
345.765594 53.872711 l
346.320559 51.638475 l
346.875524 51.821406 l
347.43049 52.377723 l
347.985455 51.794591 l
348.54042 53.63963 l
349.095385 52.712115 l
349.65035 52.364872 l
350.205315 52.209617 l
350.76028 53.872702 l
351.315245 54.984535 l
351.87021 52.37923 l
352.425175 52.230127 l
352.98014 54.061574 l
353.535105 54.207381 l
354.09007 52.464771 l
354.645035 51.420439 l
355.2 54.000063 l
355.754965 50.522334 l
356.30993 52.067524 l
356.864895 51.700551 l
357.41986 54.69057 l
357.974825 51.442195 l
358.52979 51.683624 l
359.084755 54.092376 l
359.63972 52.083823 l
360.194685 53.245915 l
361.304615 53.503369 l
361.85958 52.692116 l
362.414545 53.194777 l
362.96951 54.005717 l
363.524476 52.758467 l
364.079441 53.14824 l
364.634406 53.252062 l
365.189371 54.344973 l
365.744336 50.414187 l
366.299301 53.308288 l
366.854266 52.445867 l
367.409231 52.328447 l
367.964196 52.809787 l
368.519161 54.499381 l
369.074126 55.196445 l
370.184056 52.576665 l
370.739021 51.510344 l
371.293986 54.431754 l
371.848951 52.863507 l
372.403916 51.901767 l
372.958881 53.503173 l
373.513846 51.20962 l
374.068811 53.883104 l
374.623776 51.389488 l
375.178741 53.603162 l
375.733706 54.647238 l
376.288671 53.479293 l
376.843636 53.502539 l
377.398601 51.334163 l
377.953566 53.894379 l
378.508531 51.585312 l
379.063497 53.121379 l
379.618462 53.762584 l
380.173427 53.034821 l
380.728392 53.496875 l
381.283357 50.804876 l
381.838322 53.392283 l
382.393287 53.384131 l
382.948252 52.424627 l
383.503217 50.796784 l
384.058182 52.835636 l
384.613147 52.23587 l
385.168112 52.909759 l
385.723077 52.514637 l
386.278042 50.90765 l
386.833007 52.372139 l
387.387972 53.080174 l
387.942937 52.280535 l
388.497902 54.054654 l
389.052867 51.813846 l
389.607832 54.610497 l
390.162797 52.547704 l
390.717762 52.382302 l
391.272727 53.692808 l
391.827692 52.189143 l
392.382657 54.487625 l
393.492587 52.406701 l
394.047552 54.540668 l
394.602517 51.19527 l
395.157483 52.301196 l
395.712448 50.553902 l
396.267413 52.104413 l
396.822378 50.643809 l
397.377343 51.494802 l
398.487273 51.552686 l
398.487273 51.552686 l
stroke
grestore
0.800 setlinewidth
0 setlinejoin
0.000 setgray
gsave
57.6 38.016 m
57.6 304.128 l
stroke
grestore
gsave
414.72 38.016 m
414.72 304.128 l
stroke
grestore
gsave
57.6 38.016 m
414.72 38.016 l
stroke
grestore
gsave
57.6 304.128 m
414.72 304.128 l
stroke
grestore

end
showpage
