%!PS-Adobe-3.0 EPSF-3.0
%%Title: training_accuracy.eps
%%Creator: matplotlib version 3.3.4, http://matplotlib.org/
%%CreationDate: Wed Aug 25 16:52:37 2021
%%Orientation: portrait
%%BoundingBox: 75.6 223.20000000000002 536.4 568.8
%%EndComments
%%BeginProlog
/mpldict 8 dict def
mpldict begin
/m { moveto } bind def
/l { lineto } bind def
/r { rlineto } bind def
/c { curveto } bind def
/cl { closepath } bind def
/box {
      m
      1 index 0 r
      0 exch r
      neg 0 r
      cl
    } bind def
/clipbox {
      box
      clip
      newpath
    } bind def
%!PS-Adobe-3.0 Resource-Font
%%Title: DejaVu Sans
%%Copyright: Copyright (c) 2003 by Bitstream, Inc. All Rights Reserved. Copyright (c) 2006 by Tavmjong Bah. All Rights Reserved. DejaVu changes are in public domain 
%%Creator: Converted from TrueType to type 3 by PPR
25 dict begin
/_d{bind def}bind def
/_m{moveto}_d
/_l{lineto}_d
/_cl{closepath eofill}_d
/_c{curveto}_d
/_sc{7 -1 roll{setcachedevice}{pop pop pop pop pop pop}ifelse}_d
/_e{exec}_d
/FontName /DejaVuSans def
/PaintType 0 def
/FontMatrix[.001 0 0 .001 0 0]def
/FontBBox[-1021 -463 1793 1232]def
/FontType 3 def
/Encoding [ /space /period /zero /one /two /three /four /five /six /seven /eight /E /T /underscore /a /b /c /d /e /f /g /h /i /l /m /n /o /p /r /t /u /y ] def
/FontInfo 10 dict dup begin
/FamilyName (DejaVu Sans) def
/FullName (DejaVu Sans) def
/Notice (Copyright (c) 2003 by Bitstream, Inc. All Rights Reserved. Copyright (c) 2006 by Tavmjong Bah. All Rights Reserved. DejaVu changes are in public domain ) def
/Weight (Book) def
/Version (Version 2.35) def
/ItalicAngle 0.0 def
/isFixedPitch false def
/UnderlinePosition -130 def
/UnderlineThickness 90 def
end readonly def
/CharStrings 33 dict dup begin
/.notdef 0 def
/space{318 0 0 0 0 0 _sc
}_d
/period{318 0 107 0 210 124 _sc
107 124 _m
210 124 _l
210 0 _l
107 0 _l
107 124 _l
_cl}_d
/zero{636 0 66 -13 570 742 _sc
318 664 _m
267 664 229 639 203 589 _c
177 539 165 464 165 364 _c
165 264 177 189 203 139 _c
229 89 267 64 318 64 _c
369 64 407 89 433 139 _c
458 189 471 264 471 364 _c
471 464 458 539 433 589 _c
407 639 369 664 318 664 _c
318 742 _m
399 742 461 709 505 645 _c
548 580 570 486 570 364 _c
570 241 548 147 505 83 _c
461 19 399 -13 318 -13 _c
236 -13 173 19 130 83 _c
87 147 66 241 66 364 _c
66 486 87 580 130 645 _c
173 709 236 742 318 742 _c
_cl}_d
/one{636 0 110 0 544 729 _sc
124 83 _m
285 83 _l
285 639 _l
110 604 _l
110 694 _l
284 729 _l
383 729 _l
383 83 _l
544 83 _l
544 0 _l
124 0 _l
124 83 _l
_cl}_d
/two{{636 0 73 0 536 742 _sc
192 83 _m
536 83 _l
536 0 _l
73 0 _l
73 83 _l
110 121 161 173 226 239 _c
290 304 331 346 348 365 _c
380 400 402 430 414 455 _c
426 479 433 504 433 528 _c
433 566 419 598 392 622 _c
365 646 330 659 286 659 _c
255 659 222 653 188 643 _c
154 632 117 616 78 594 _c
78 694 _l
118 710 155 722 189 730 _c
223 738 255 742 284 742 _c
}_e{359 742 419 723 464 685 _c
509 647 532 597 532 534 _c
532 504 526 475 515 449 _c
504 422 484 390 454 354 _c
446 344 420 317 376 272 _c
332 227 271 164 192 83 _c
_cl}_e}_d
/three{{636 0 76 -13 556 742 _sc
406 393 _m
453 383 490 362 516 330 _c
542 298 556 258 556 212 _c
556 140 531 84 482 45 _c
432 6 362 -13 271 -13 _c
240 -13 208 -10 176 -4 _c
144 1 110 10 76 22 _c
76 117 _l
103 101 133 89 166 81 _c
198 73 232 69 268 69 _c
330 69 377 81 409 105 _c
441 129 458 165 458 212 _c
458 254 443 288 413 312 _c
383 336 341 349 287 349 _c
}_e{202 349 _l
202 430 _l
291 430 _l
339 430 376 439 402 459 _c
428 478 441 506 441 543 _c
441 580 427 609 401 629 _c
374 649 336 659 287 659 _c
260 659 231 656 200 650 _c
169 644 135 635 98 623 _c
98 711 _l
135 721 170 729 203 734 _c
235 739 266 742 296 742 _c
370 742 429 725 473 691 _c
517 657 539 611 539 553 _c
539 513 527 479 504 451 _c
481 423 448 403 406 393 _c
_cl}_e}_d
/four{636 0 49 0 580 729 _sc
378 643 _m
129 254 _l
378 254 _l
378 643 _l
352 729 _m
476 729 _l
476 254 _l
580 254 _l
580 172 _l
476 172 _l
476 0 _l
378 0 _l
378 172 _l
49 172 _l
49 267 _l
352 729 _l
_cl}_d
/five{{636 0 77 -13 549 729 _sc
108 729 _m
495 729 _l
495 646 _l
198 646 _l
198 467 _l
212 472 227 476 241 478 _c
255 480 270 482 284 482 _c
365 482 429 459 477 415 _c
525 370 549 310 549 234 _c
549 155 524 94 475 51 _c
426 8 357 -13 269 -13 _c
238 -13 207 -10 175 -6 _c
143 -1 111 6 77 17 _c
77 116 _l
106 100 136 88 168 80 _c
199 72 232 69 267 69 _c
}_e{323 69 368 83 401 113 _c
433 143 450 183 450 234 _c
450 284 433 324 401 354 _c
368 384 323 399 267 399 _c
241 399 214 396 188 390 _c
162 384 135 375 108 363 _c
108 729 _l
_cl}_e}_d
/six{{636 0 70 -13 573 742 _sc
330 404 _m
286 404 251 388 225 358 _c
199 328 186 286 186 234 _c
186 181 199 139 225 109 _c
251 79 286 64 330 64 _c
374 64 409 79 435 109 _c
461 139 474 181 474 234 _c
474 286 461 328 435 358 _c
409 388 374 404 330 404 _c
526 713 _m
526 623 _l
501 635 476 644 451 650 _c
425 656 400 659 376 659 _c
310 659 260 637 226 593 _c
}_e{192 549 172 482 168 394 _c
187 422 211 444 240 459 _c
269 474 301 482 336 482 _c
409 482 467 459 509 415 _c
551 371 573 310 573 234 _c
573 159 550 99 506 54 _c
462 9 403 -13 330 -13 _c
246 -13 181 19 137 83 _c
92 147 70 241 70 364 _c
70 479 97 571 152 639 _c
206 707 280 742 372 742 _c
396 742 421 739 447 735 _c
472 730 498 723 526 713 _c
_cl}_e}_d
/seven{636 0 82 0 551 729 _sc
82 729 _m
551 729 _l
551 687 _l
286 0 _l
183 0 _l
432 646 _l
82 646 _l
82 729 _l
_cl}_d
/eight{{636 0 68 -13 568 742 _sc
318 346 _m
271 346 234 333 207 308 _c
180 283 167 249 167 205 _c
167 161 180 126 207 101 _c
234 76 271 64 318 64 _c
364 64 401 76 428 102 _c
455 127 469 161 469 205 _c
469 249 455 283 429 308 _c
402 333 365 346 318 346 _c
219 388 _m
177 398 144 418 120 447 _c
96 476 85 511 85 553 _c
85 611 105 657 147 691 _c
188 725 245 742 318 742 _c
}_e{390 742 447 725 489 691 _c
530 657 551 611 551 553 _c
551 511 539 476 515 447 _c
491 418 459 398 417 388 _c
464 377 501 355 528 323 _c
554 291 568 251 568 205 _c
568 134 546 80 503 43 _c
459 5 398 -13 318 -13 _c
237 -13 175 5 132 43 _c
89 80 68 134 68 205 _c
68 251 81 291 108 323 _c
134 355 171 377 219 388 _c
183 544 _m
183 506 194 476 218 455 _c
}_e{242 434 275 424 318 424 _c
360 424 393 434 417 455 _c
441 476 453 506 453 544 _c
453 582 441 611 417 632 _c
393 653 360 664 318 664 _c
275 664 242 653 218 632 _c
194 611 183 582 183 544 _c
_cl}_e}_d
/E{632 0 98 0 568 729 _sc
98 729 _m
559 729 _l
559 646 _l
197 646 _l
197 430 _l
544 430 _l
544 347 _l
197 347 _l
197 83 _l
568 83 _l
568 0 _l
98 0 _l
98 729 _l
_cl}_d
/T{611 0 -2 0 614 729 _sc
-2 729 _m
614 729 _l
614 646 _l
355 646 _l
355 0 _l
256 0 _l
256 646 _l
-2 646 _l
-2 729 _l
_cl}_d
/underscore{500 0 -9 -235 510 -165 _sc
510 -165 _m
510 -235 _l
-9 -235 _l
-9 -165 _l
510 -165 _l
_cl}_d
/a{{613 0 60 -13 522 560 _sc
343 275 _m
270 275 220 266 192 250 _c
164 233 150 205 150 165 _c
150 133 160 107 181 89 _c
202 70 231 61 267 61 _c
317 61 357 78 387 114 _c
417 149 432 196 432 255 _c
432 275 _l
343 275 _l
522 312 _m
522 0 _l
432 0 _l
432 83 _l
411 49 385 25 355 10 _c
325 -5 287 -13 243 -13 _c
187 -13 142 2 109 33 _c
76 64 60 106 60 159 _c
}_e{60 220 80 266 122 298 _c
163 329 224 345 306 345 _c
432 345 _l
432 354 _l
432 395 418 427 391 450 _c
364 472 326 484 277 484 _c
245 484 215 480 185 472 _c
155 464 127 453 100 439 _c
100 522 _l
132 534 164 544 195 550 _c
226 556 256 560 286 560 _c
365 560 424 539 463 498 _c
502 457 522 395 522 312 _c
_cl}_e}_d
/b{{635 0 91 -13 580 760 _sc
487 273 _m
487 339 473 390 446 428 _c
418 466 381 485 334 485 _c
286 485 249 466 222 428 _c
194 390 181 339 181 273 _c
181 207 194 155 222 117 _c
249 79 286 61 334 61 _c
381 61 418 79 446 117 _c
473 155 487 207 487 273 _c
181 464 _m
199 496 223 520 252 536 _c
281 552 316 560 356 560 _c
422 560 476 533 518 481 _c
559 428 580 359 580 273 _c
}_e{580 187 559 117 518 65 _c
476 13 422 -13 356 -13 _c
316 -13 281 -5 252 10 _c
223 25 199 49 181 82 _c
181 0 _l
91 0 _l
91 760 _l
181 760 _l
181 464 _l
_cl}_e}_d
/c{{550 0 55 -13 488 560 _sc
488 526 _m
488 442 _l
462 456 437 466 411 473 _c
385 480 360 484 334 484 _c
276 484 230 465 198 428 _c
166 391 150 339 150 273 _c
150 206 166 154 198 117 _c
230 80 276 62 334 62 _c
360 62 385 65 411 72 _c
437 79 462 90 488 104 _c
488 21 _l
462 9 436 0 410 -5 _c
383 -10 354 -13 324 -13 _c
242 -13 176 12 128 64 _c
}_e{79 115 55 185 55 273 _c
55 362 79 432 128 483 _c
177 534 244 560 330 560 _c
358 560 385 557 411 551 _c
437 545 463 537 488 526 _c
_cl}_e}_d
/d{{635 0 55 -13 544 760 _sc
454 464 _m
454 760 _l
544 760 _l
544 0 _l
454 0 _l
454 82 _l
435 49 411 25 382 10 _c
353 -5 319 -13 279 -13 _c
213 -13 159 13 117 65 _c
75 117 55 187 55 273 _c
55 359 75 428 117 481 _c
159 533 213 560 279 560 _c
319 560 353 552 382 536 _c
411 520 435 496 454 464 _c
148 273 _m
148 207 161 155 188 117 _c
215 79 253 61 301 61 _c
}_e{348 61 385 79 413 117 _c
440 155 454 207 454 273 _c
454 339 440 390 413 428 _c
385 466 348 485 301 485 _c
253 485 215 466 188 428 _c
161 390 148 339 148 273 _c
_cl}_e}_d
/e{{615 0 55 -13 562 560 _sc
562 296 _m
562 252 _l
149 252 _l
153 190 171 142 205 110 _c
238 78 284 62 344 62 _c
378 62 412 66 444 74 _c
476 82 509 95 541 113 _c
541 28 _l
509 14 476 3 442 -3 _c
408 -9 373 -13 339 -13 _c
251 -13 182 12 131 62 _c
80 112 55 181 55 268 _c
55 357 79 428 127 481 _c
175 533 241 560 323 560 _c
397 560 455 536 498 489 _c
}_e{540 441 562 377 562 296 _c
472 322 _m
471 371 457 410 431 440 _c
404 469 368 484 324 484 _c
274 484 234 469 204 441 _c
174 413 156 373 152 322 _c
472 322 _l
_cl}_e}_d
/f{352 0 23 0 371 760 _sc
371 760 _m
371 685 _l
285 685 _l
253 685 230 678 218 665 _c
205 652 199 629 199 595 _c
199 547 _l
347 547 _l
347 477 _l
199 477 _l
199 0 _l
109 0 _l
109 477 _l
23 477 _l
23 547 _l
109 547 _l
109 585 _l
109 645 123 690 151 718 _c
179 746 224 760 286 760 _c
371 760 _l
_cl}_d
/g{{635 0 55 -207 544 560 _sc
454 280 _m
454 344 440 395 414 431 _c
387 467 349 485 301 485 _c
253 485 215 467 188 431 _c
161 395 148 344 148 280 _c
148 215 161 165 188 129 _c
215 93 253 75 301 75 _c
349 75 387 93 414 129 _c
440 165 454 215 454 280 _c
544 68 _m
544 -24 523 -93 482 -139 _c
440 -184 377 -207 292 -207 _c
260 -207 231 -204 203 -200 _c
175 -195 147 -188 121 -178 _c
}_e{121 -91 _l
147 -105 173 -115 199 -122 _c
225 -129 251 -133 278 -133 _c
336 -133 380 -117 410 -87 _c
439 -56 454 -10 454 52 _c
454 96 _l
435 64 411 40 382 24 _c
353 8 319 0 279 0 _c
211 0 157 25 116 76 _c
75 127 55 195 55 280 _c
55 364 75 432 116 483 _c
157 534 211 560 279 560 _c
319 560 353 552 382 536 _c
411 520 435 496 454 464 _c
454 547 _l
544 547 _l
}_e{544 68 _l
_cl}_e}_d
/h{634 0 91 0 549 760 _sc
549 330 _m
549 0 _l
459 0 _l
459 327 _l
459 379 448 417 428 443 _c
408 469 378 482 338 482 _c
289 482 251 466 223 435 _c
195 404 181 362 181 309 _c
181 0 _l
91 0 _l
91 760 _l
181 760 _l
181 462 _l
202 494 227 519 257 535 _c
286 551 320 560 358 560 _c
420 560 468 540 500 501 _c
532 462 549 405 549 330 _c
_cl}_d
/i{278 0 94 0 184 760 _sc
94 547 _m
184 547 _l
184 0 _l
94 0 _l
94 547 _l
94 760 _m
184 760 _l
184 646 _l
94 646 _l
94 760 _l
_cl}_d
/l{278 0 94 0 184 760 _sc
94 760 _m
184 760 _l
184 0 _l
94 0 _l
94 760 _l
_cl}_d
/m{{974 0 91 0 889 560 _sc
520 442 _m
542 482 569 511 600 531 _c
631 550 668 560 711 560 _c
767 560 811 540 842 500 _c
873 460 889 403 889 330 _c
889 0 _l
799 0 _l
799 327 _l
799 379 789 418 771 444 _c
752 469 724 482 686 482 _c
639 482 602 466 575 435 _c
548 404 535 362 535 309 _c
535 0 _l
445 0 _l
445 327 _l
445 379 435 418 417 444 _c
398 469 369 482 331 482 _c
}_e{285 482 248 466 221 435 _c
194 404 181 362 181 309 _c
181 0 _l
91 0 _l
91 547 _l
181 547 _l
181 462 _l
201 495 226 520 255 536 _c
283 552 317 560 357 560 _c
397 560 430 550 458 530 _c
486 510 506 480 520 442 _c
_cl}_e}_d
/n{634 0 91 0 549 560 _sc
549 330 _m
549 0 _l
459 0 _l
459 327 _l
459 379 448 417 428 443 _c
408 469 378 482 338 482 _c
289 482 251 466 223 435 _c
195 404 181 362 181 309 _c
181 0 _l
91 0 _l
91 547 _l
181 547 _l
181 462 _l
202 494 227 519 257 535 _c
286 551 320 560 358 560 _c
420 560 468 540 500 501 _c
532 462 549 405 549 330 _c
_cl}_d
/o{612 0 55 -13 557 560 _sc
306 484 _m
258 484 220 465 192 427 _c
164 389 150 338 150 273 _c
150 207 163 156 191 118 _c
219 80 257 62 306 62 _c
354 62 392 80 420 118 _c
448 156 462 207 462 273 _c
462 337 448 389 420 427 _c
392 465 354 484 306 484 _c
306 560 _m
384 560 445 534 490 484 _c
534 433 557 363 557 273 _c
557 183 534 113 490 63 _c
445 12 384 -13 306 -13 _c
227 -13 165 12 121 63 _c
77 113 55 183 55 273 _c
55 363 77 433 121 484 _c
165 534 227 560 306 560 _c
_cl}_d
/p{{635 0 91 -207 580 560 _sc
181 82 _m
181 -207 _l
91 -207 _l
91 547 _l
181 547 _l
181 464 _l
199 496 223 520 252 536 _c
281 552 316 560 356 560 _c
422 560 476 533 518 481 _c
559 428 580 359 580 273 _c
580 187 559 117 518 65 _c
476 13 422 -13 356 -13 _c
316 -13 281 -5 252 10 _c
223 25 199 49 181 82 _c
487 273 _m
487 339 473 390 446 428 _c
418 466 381 485 334 485 _c
}_e{286 485 249 466 222 428 _c
194 390 181 339 181 273 _c
181 207 194 155 222 117 _c
249 79 286 61 334 61 _c
381 61 418 79 446 117 _c
473 155 487 207 487 273 _c
_cl}_e}_d
/r{411 0 91 0 411 560 _sc
411 463 _m
401 469 390 473 378 476 _c
366 478 353 480 339 480 _c
288 480 249 463 222 430 _c
194 397 181 350 181 288 _c
181 0 _l
91 0 _l
91 547 _l
181 547 _l
181 462 _l
199 495 224 520 254 536 _c
284 552 321 560 365 560 _c
371 560 378 559 386 559 _c
393 558 401 557 411 555 _c
411 463 _l
_cl}_d
/t{392 0 27 0 368 702 _sc
183 702 _m
183 547 _l
368 547 _l
368 477 _l
183 477 _l
183 180 _l
183 135 189 106 201 94 _c
213 81 238 75 276 75 _c
368 75 _l
368 0 _l
276 0 _l
206 0 158 13 132 39 _c
106 65 93 112 93 180 _c
93 477 _l
27 477 _l
27 547 _l
93 547 _l
93 702 _l
183 702 _l
_cl}_d
/u{634 0 85 -13 543 560 _sc
85 216 _m
85 547 _l
175 547 _l
175 219 _l
175 167 185 129 205 103 _c
225 77 255 64 296 64 _c
344 64 383 79 411 110 _c
439 141 453 183 453 237 _c
453 547 _l
543 547 _l
543 0 _l
453 0 _l
453 84 _l
431 50 405 26 377 10 _c
348 -5 315 -13 277 -13 _c
214 -13 166 6 134 45 _c
101 83 85 140 85 216 _c
311 560 _m
311 560 _l
_cl}_d
/y{592 0 30 -207 562 547 _sc
322 -50 _m
296 -114 271 -157 247 -177 _c
223 -197 191 -207 151 -207 _c
79 -207 _l
79 -132 _l
132 -132 _l
156 -132 175 -126 189 -114 _c
203 -102 218 -75 235 -31 _c
251 9 _l
30 547 _l
125 547 _l
296 119 _l
467 547 _l
562 547 _l
322 -50 _l
_cl}_d
end readonly def

/BuildGlyph
 {exch begin
 CharStrings exch
 2 copy known not{pop /.notdef}if
 true 3 1 roll get exec
 end}_d

/BuildChar {
 1 index /Encoding get exch get
 1 index /BuildGlyph get exec
}_d

FontName currentdict end definefont pop
end
%%EndProlog
mpldict begin
75.6 223.2 translate
460.8 345.6 0 0 clipbox
gsave
0 0 m
460.8 0 l
460.8 345.6 l
0 345.6 l
cl
1.000 setgray
fill
grestore
gsave
57.6 38.016 m
414.72 38.016 l
414.72 304.128 l
57.6 304.128 l
cl
1.000 setgray
fill
grestore
0.800 setlinewidth
1 setlinejoin
2 setlinecap
[] 0 setdash
0.690 setgray
gsave
357.1 266.1 57.6 38.02 clipbox
73.832727 38.016 m
73.832727 304.128 l
stroke
grestore
0 setlinecap
0.000 setgray
gsave
/o {
gsave
newpath
translate
0.8 setlinewidth
1 setlinejoin
0 setlinecap
0 0 m
0 -3.5 l

gsave
0.000 setgray
fill
grestore
stroke
grestore
} bind def
73.8327 38.016 o
grestore
/DejaVuSans findfont
10.000 scalefont
setfont
gsave
70.653040 23.422250 translate
0.000000 rotate
0.000000 0 m /zero glyphshow
grestore
2 setlinecap
0.690 setgray
gsave
357.1 266.1 57.6 38.02 clipbox
139.419504 38.016 m
139.419504 304.128 l
stroke
grestore
0 setlinecap
0.000 setgray
gsave
/o {
gsave
newpath
translate
0.8 setlinewidth
1 setlinejoin
0 setlinecap
0 0 m
0 -3.5 l

gsave
0.000 setgray
fill
grestore
stroke
grestore
} bind def
139.42 38.016 o
grestore
gsave
133.060129 23.422250 translate
0.000000 rotate
0.000000 0 m /two glyphshow
6.362305 0 m /zero glyphshow
grestore
2 setlinecap
0.690 setgray
gsave
357.1 266.1 57.6 38.02 clipbox
205.006281 38.016 m
205.006281 304.128 l
stroke
grestore
0 setlinecap
0.000 setgray
gsave
/o {
gsave
newpath
translate
0.8 setlinewidth
1 setlinejoin
0 setlinecap
0 0 m
0 -3.5 l

gsave
0.000 setgray
fill
grestore
stroke
grestore
} bind def
205.006 38.016 o
grestore
gsave
198.646906 23.422250 translate
0.000000 rotate
0.000000 0 m /four glyphshow
6.362305 0 m /zero glyphshow
grestore
2 setlinecap
0.690 setgray
gsave
357.1 266.1 57.6 38.02 clipbox
270.593058 38.016 m
270.593058 304.128 l
stroke
grestore
0 setlinecap
0.000 setgray
gsave
/o {
gsave
newpath
translate
0.8 setlinewidth
1 setlinejoin
0 setlinecap
0 0 m
0 -3.5 l

gsave
0.000 setgray
fill
grestore
stroke
grestore
} bind def
270.593 38.016 o
grestore
gsave
264.233683 23.422250 translate
0.000000 rotate
0.000000 0 m /six glyphshow
6.362305 0 m /zero glyphshow
grestore
2 setlinecap
0.690 setgray
gsave
357.1 266.1 57.6 38.02 clipbox
336.179835 38.016 m
336.179835 304.128 l
stroke
grestore
0 setlinecap
0.000 setgray
gsave
/o {
gsave
newpath
translate
0.8 setlinewidth
1 setlinejoin
0 setlinecap
0 0 m
0 -3.5 l

gsave
0.000 setgray
fill
grestore
stroke
grestore
} bind def
336.18 38.016 o
grestore
gsave
329.820460 23.422250 translate
0.000000 rotate
0.000000 0 m /eight glyphshow
6.362305 0 m /zero glyphshow
grestore
2 setlinecap
0.690 setgray
gsave
357.1 266.1 57.6 38.02 clipbox
401.766612 38.016 m
401.766612 304.128 l
stroke
grestore
0 setlinecap
0.000 setgray
gsave
/o {
gsave
newpath
translate
0.8 setlinewidth
1 setlinejoin
0 setlinecap
0 0 m
0 -3.5 l

gsave
0.000 setgray
fill
grestore
stroke
grestore
} bind def
401.767 38.016 o
grestore
gsave
392.227549 23.422250 translate
0.000000 rotate
0.000000 0 m /one glyphshow
6.362305 0 m /zero glyphshow
12.724609 0 m /zero glyphshow
grestore
gsave
220.847500 9.750375 translate
0.000000 rotate
0.000000 0 m /E glyphshow
6.318359 0 m /p glyphshow
12.666016 0 m /o glyphshow
18.784180 0 m /c glyphshow
24.282227 0 m /h glyphshow
grestore
2 setlinecap
0.690 setgray
gsave
357.1 266.1 57.6 38.02 clipbox
57.6 76.194519 m
414.72 76.194519 l
stroke
grestore
0 setlinecap
0.000 setgray
gsave
/o {
gsave
newpath
translate
0.8 setlinewidth
1 setlinejoin
0 setlinecap
-0 0 m
-3.5 0 l

gsave
0.000 setgray
fill
grestore
stroke
grestore
} bind def
57.6 76.1945 o
grestore
gsave
34.693750 72.397644 translate
0.000000 rotate
0.000000 0 m /zero glyphshow
6.362305 0 m /period glyphshow
9.541016 0 m /two glyphshow
grestore
2 setlinecap
0.690 setgray
gsave
357.1 266.1 57.6 38.02 clipbox
57.6 130.193264 m
414.72 130.193264 l
stroke
grestore
0 setlinecap
0.000 setgray
gsave
/o {
gsave
newpath
translate
0.8 setlinewidth
1 setlinejoin
0 setlinecap
-0 0 m
-3.5 0 l

gsave
0.000 setgray
fill
grestore
stroke
grestore
} bind def
57.6 130.193 o
grestore
gsave
34.693750 126.396389 translate
0.000000 rotate
0.000000 0 m /zero glyphshow
6.362305 0 m /period glyphshow
9.541016 0 m /four glyphshow
grestore
2 setlinecap
0.690 setgray
gsave
357.1 266.1 57.6 38.02 clipbox
57.6 184.19201 m
414.72 184.19201 l
stroke
grestore
0 setlinecap
0.000 setgray
gsave
/o {
gsave
newpath
translate
0.8 setlinewidth
1 setlinejoin
0 setlinecap
-0 0 m
-3.5 0 l

gsave
0.000 setgray
fill
grestore
stroke
grestore
} bind def
57.6 184.192 o
grestore
gsave
34.693750 180.395135 translate
0.000000 rotate
0.000000 0 m /zero glyphshow
6.362305 0 m /period glyphshow
9.541016 0 m /six glyphshow
grestore
2 setlinecap
0.690 setgray
gsave
357.1 266.1 57.6 38.02 clipbox
57.6 238.190755 m
414.72 238.190755 l
stroke
grestore
0 setlinecap
0.000 setgray
gsave
/o {
gsave
newpath
translate
0.8 setlinewidth
1 setlinejoin
0 setlinecap
-0 0 m
-3.5 0 l

gsave
0.000 setgray
fill
grestore
stroke
grestore
} bind def
57.6 238.191 o
grestore
gsave
34.693750 234.393880 translate
0.000000 rotate
0.000000 0 m /zero glyphshow
6.362305 0 m /period glyphshow
9.541016 0 m /eight glyphshow
grestore
2 setlinecap
0.690 setgray
gsave
357.1 266.1 57.6 38.02 clipbox
57.6 292.189501 m
414.72 292.189501 l
stroke
grestore
0 setlinecap
0.000 setgray
gsave
/o {
gsave
newpath
translate
0.8 setlinewidth
1 setlinejoin
0 setlinecap
-0 0 m
-3.5 0 l

gsave
0.000 setgray
fill
grestore
stroke
grestore
} bind def
57.6 292.19 o
grestore
gsave
34.693750 288.392626 translate
0.000000 rotate
0.000000 0 m /one glyphshow
6.362305 0 m /period glyphshow
9.541016 0 m /zero glyphshow
grestore
gsave
28.615625 127.197000 translate
90.000000 rotate
0.000000 0 m /T glyphshow
4.608398 0 m /r glyphshow
8.719727 0 m /a glyphshow
14.847656 0 m /i glyphshow
17.625977 0 m /n glyphshow
23.963867 0 m /i glyphshow
26.742188 0 m /n glyphshow
33.080078 0 m /g glyphshow
39.427734 0 m /space glyphshow
42.606445 0 m /a glyphshow
48.734375 0 m /c glyphshow
54.232422 0 m /c glyphshow
59.730469 0 m /u glyphshow
66.068359 0 m /r glyphshow
70.179688 0 m /a glyphshow
76.307617 0 m /c glyphshow
81.805664 0 m /y glyphshow
grestore
1.500 setlinewidth
2 setlinecap
0.122 0.467 0.706 setrgbcolor
gsave
357.1 266.1 57.6 38.02 clipbox
73.832727 259.284019 m
77.112066 269.78002 l
80.391405 273.627426 l
83.670744 275.832376 l
86.950083 276.709856 l
stroke
grestore
1.000 0.498 0.055 setrgbcolor
gsave
357.1 266.1 57.6 38.02 clipbox
73.832727 244.389366 m
77.112066 272.46309 l
80.391405 277.784217 l
83.670744 280.242275 l
86.950083 282.385348 l
90.229421 283.881568 l
93.50876 284.798427 l
96.788099 285.501525 l
100.067438 286.238386 l
103.346777 286.660261 l
106.626116 287.155246 l
109.905455 287.599602 l
113.184793 287.998979 l
116.464132 288.111469 l
119.743471 288.426471 l
123.02281 288.550209 l
126.302149 288.814583 l
129.581488 288.848329 l
132.860826 289.213944 l
136.140165 289.197078 l
139.419504 289.562692 l
142.698843 289.990184 l
145.978182 289.866429 l
149.257521 290.091424 l
152.53686 290.125171 l
155.816198 290.367047 l
159.095537 290.361414 l
162.374876 290.468287 l
165.654215 290.490785 l
168.933554 290.648286 l
172.212893 290.70453 l
175.492231 290.760791 l
178.77157 290.766408 l
182.050909 290.676416 l
185.330248 290.670784 l
188.609587 290.84515 l
191.888926 290.985786 l
195.168264 290.974537 l
198.447603 290.929525 l
201.726942 290.968904 l
205.006281 291.070145 l
208.28562 291.04203 l
211.564959 291.143271 l
214.844298 290.991402 l
218.123636 291.193899 l
221.402975 291.177017 l
224.682314 291.244527 l
227.961653 291.306404 l
231.240992 291.092659 l
234.520331 291.328902 l
237.799669 291.463889 l
241.079008 291.407645 l
244.358347 291.717014 l
247.637686 291.62139 l
250.917025 291.576394 l
254.196364 291.548264 l
257.475702 291.688884 l
260.755041 291.694516 l
264.03438 291.660769 l
267.313719 291.700133 l
270.593058 291.649521 l
273.872397 291.700133 l
277.151736 291.705765 l
280.431074 291.542648 l
283.710413 291.745128 l
286.989752 291.756393 l
290.269091 291.688884 l
293.54843 291.739512 l
296.827769 291.655137 l
300.107107 291.79014 l
303.386446 291.807005 l
306.665785 291.919511 l
309.945124 291.863266 l
313.224463 291.677635 l
316.503802 291.672018 l
319.78314 291.688884 l
323.062479 291.717014 l
326.341818 291.728263 l
329.621157 291.818254 l
332.900496 291.89138 l
336.179835 291.76201 l
339.459174 291.936376 l
342.738512 291.880131 l
346.017851 291.846385 l
349.29719 291.868883 l
352.576529 292.009502 l
355.855868 291.913878 l
359.135207 292.026384 l
362.414545 291.863266 l
365.693884 291.942009 l
368.973223 291.919511 l
372.252562 291.975755 l
375.531901 291.874515 l
378.81124 291.919511 l
382.090579 292.032 l
385.369917 291.998253 l
388.649256 292.009502 l
391.928595 291.953258 l
395.207934 291.936376 l
398.487273 292.020751 l
stroke
grestore
0.173 0.627 0.173 setrgbcolor
gsave
357.1 266.1 57.6 38.02 clipbox
73.832727 50.112 m
77.112066 80.176928 l
80.391405 103.852005 l
83.670744 128.972669 l
86.950083 139.941166 l
90.229421 158.615731 l
93.50876 168.104881 l
96.788099 182.22331 l
100.067438 184.782625 l
103.346777 188.157543 l
106.626116 194.271776 l
109.905455 199.559156 l
113.184793 201.876595 l
116.464132 204.222165 l
119.743471 208.463314 l
123.02281 209.813282 l
126.302149 212.867598 l
129.581488 215.651907 l
132.860826 216.765631 l
136.140165 219.375575 l
139.419504 220.984283 l
142.698843 222.930492 l
145.978182 224.089211 l
149.257521 226.159158 l
152.53686 227.014141 l
155.816198 229.010961 l
159.095537 229.404706 l
162.374876 231.851532 l
165.654215 231.829034 l
168.933554 234.191469 l
172.212893 232.599641 l
175.492231 235.580815 l
178.77157 234.849587 l
182.050909 237.223271 l
185.330248 237.206405 l
188.609587 239.073855 l
191.888926 239.096353 l
195.168264 240.828816 l
198.447603 240.980685 l
201.726942 242.527532 l
205.006281 242.42066 l
208.28562 244.158739 l
211.564959 243.843753 l
214.844298 245.879953 l
218.123636 244.788727 l
221.402975 247.207422 l
224.682314 246.403068 l
227.961653 248.366142 l
231.240992 248.039907 l
234.520331 249.721742 l
237.799669 249.401123 l
241.079008 250.672348 l
244.358347 250.76234 l
247.637686 251.538564 l
250.917025 251.94919 l
254.196364 252.455423 l
257.475702 253.186652 l
260.755041 253.209149 l
264.03438 254.15414 l
267.313719 254.024769 l
270.593058 255.070983 l
273.872397 255.014738 l
277.151736 254.784127 l
280.431074 254.463509 l
283.710413 254.491623 l
286.989752 255.689722 l
290.269091 255.869721 l
293.54843 256.73032 l
296.827769 257.562805 l
300.107107 257.146562 l
303.386446 258.800283 l
306.665785 257.619049 l
309.945124 260.12212 l
313.224463 258.76652 l
316.503802 261.483336 l
319.78314 259.548376 l
323.062479 261.854583 l
326.341818 260.453987 l
329.621157 262.45644 l
332.900496 261.286472 l
336.179835 263.080796 l
339.459174 262.175201 l
342.738512 263.885166 l
346.017851 262.850185 l
349.29719 264.734516 l
352.576529 263.266427 l
355.855868 265.201371 l
359.135207 263.677037 l
362.414545 265.730118 l
365.693884 264.098896 l
368.973223 265.668241 l
372.252562 265.24075 l
375.531901 266.421967 l
378.81124 266.545722 l
382.090579 267.046339 l
385.369917 267.845061 l
388.649256 267.17571 l
391.928595 267.974431 l
395.207934 265.021388 l
398.487273 267.490696 l
stroke
grestore
0.839 0.153 0.157 setrgbcolor
gsave
357.1 266.1 57.6 38.02 clipbox
73.832727 230.152816 m
77.112066 258.856527 l
80.391405 267.41757 l
83.670744 271.5181 l
86.950083 274.285544 l
90.229421 276.377989 l
93.50876 277.784217 l
96.788099 279.370428 l
100.067438 280.872263 l
103.346777 281.136637 l
106.626116 282.970341 l
109.905455 283.52157 l
113.184793 283.763446 l
116.464132 284.505923 l
119.743471 285.293412 l
123.02281 285.5859 l
126.302149 285.839025 l
129.581488 286.345259 l
132.860826 286.519625 l
136.140165 286.935868 l
139.419504 287.318363 l
142.698843 288.055224 l
145.978182 287.880858 l
149.257521 287.858344 l
152.53686 288.870827 l
155.816198 288.572707 l
159.095537 288.662714 l
162.374876 288.690828 l
165.654215 288.893325 l
168.933554 289.332065 l
172.212893 289.185813 l
175.492231 289.438938 l
178.77157 289.596439 l
182.050909 289.990184 l
185.330248 289.270188 l
188.609587 290.007049 l
191.888926 289.911425 l
195.168264 290.226427 l
198.447603 290.057677 l
201.726942 290.237676 l
205.006281 290.181415 l
208.28562 290.254541 l
211.564959 290.293921 l
214.844298 290.412042 l
218.123636 290.518915 l
221.402975 290.158917 l
224.682314 290.513283 l
227.961653 290.592041 l
231.240992 290.541413 l
234.520331 290.496417 l
237.799669 290.862032 l
241.079008 290.547046 l
244.358347 290.878913 l
247.637686 290.732661 l
250.917025 290.884529 l
254.196364 290.968904 l
257.475702 290.974537 l
260.755041 290.676416 l
264.03438 290.935158 l
267.313719 291.08141 l
270.593058 291.120773 l
273.872397 290.952023 l
277.151736 290.963272 l
280.431074 291.188266 l
283.710413 291.064528 l
286.989752 290.991402 l
290.269091 290.957655 l
293.54843 291.385147 l
296.827769 290.997035 l
300.107107 291.373898 l
303.386446 291.092659 l
306.665785 291.0139 l
309.945124 291.278274 l
313.224463 291.312021 l
316.503802 291.216397 l
319.78314 291.317653 l
323.062479 291.289523 l
326.341818 291.008284 l
329.621157 291.463889 l
332.900496 291.312021 l
336.179835 291.109524 l
339.459174 291.385147 l
342.738512 291.390763 l
346.017851 291.21078 l
349.29719 291.3514 l
352.576529 291.598892 l
355.855868 291.092659 l
359.135207 291.345767 l
362.414545 291.492019 l
365.693884 291.407645 l
368.973223 291.492019 l
372.252562 291.632639 l
375.531901 291.15452 l
378.81124 291.418893 l
382.090579 291.576394 l
385.369917 291.317653 l
388.649256 291.508885 l
391.928595 291.418893 l
395.207934 291.672018 l
398.487273 291.357016 l
stroke
grestore
0.580 0.404 0.741 setrgbcolor
gsave
357.1 266.1 57.6 38.02 clipbox
73.832727 52.148202 m
77.112066 52.519445 l
80.391405 52.519445 l
83.670744 52.519445 l
86.950083 52.519445 l
90.229421 52.519445 l
93.50876 52.519445 l
96.788099 52.519445 l
100.067438 52.519445 l
103.346777 52.519445 l
106.626116 52.519445 l
109.905455 52.519445 l
113.184793 52.519445 l
116.464132 52.519445 l
119.743471 52.519445 l
123.02281 52.519445 l
126.302149 52.519445 l
129.581488 52.519445 l
132.860826 52.519445 l
136.140165 52.519445 l
139.419504 52.519445 l
142.698843 52.519445 l
145.978182 52.519445 l
149.257521 52.519445 l
152.53686 52.519445 l
155.816198 52.519445 l
159.095537 52.519445 l
162.374876 52.519445 l
165.654215 52.519445 l
168.933554 52.519445 l
172.212893 52.519445 l
175.492231 52.519445 l
178.77157 52.519445 l
182.050909 52.519445 l
185.330248 52.519445 l
188.609587 52.519445 l
191.888926 52.519445 l
195.168264 52.519445 l
198.447603 52.519445 l
201.726942 52.519445 l
205.006281 52.519445 l
208.28562 52.519445 l
211.564959 52.519445 l
214.844298 52.519445 l
218.123636 52.519445 l
221.402975 52.519445 l
224.682314 52.519445 l
227.961653 52.519445 l
231.240992 52.519445 l
234.520331 52.519445 l
237.799669 52.519445 l
241.079008 52.519445 l
244.358347 52.519445 l
247.637686 52.519445 l
250.917025 52.519445 l
254.196364 52.519445 l
257.475702 52.519445 l
260.755041 52.519445 l
264.03438 52.519445 l
267.313719 52.519445 l
270.593058 52.519445 l
273.872397 52.519445 l
277.151736 52.519445 l
280.431074 52.519445 l
283.710413 52.519445 l
286.989752 52.519445 l
290.269091 52.519445 l
293.54843 52.519445 l
296.827769 52.519445 l
300.107107 52.519445 l
303.386446 52.519445 l
306.665785 52.519445 l
309.945124 52.519445 l
313.224463 52.519445 l
316.503802 52.519445 l
319.78314 52.519445 l
323.062479 52.519445 l
326.341818 52.519445 l
329.621157 52.519445 l
332.900496 52.519445 l
336.179835 52.519445 l
339.459174 52.519445 l
342.738512 52.519445 l
346.017851 52.519445 l
349.29719 52.519445 l
352.576529 52.519445 l
355.855868 52.519445 l
359.135207 52.519445 l
362.414545 52.519445 l
365.693884 52.519445 l
368.973223 52.519445 l
372.252562 52.519445 l
375.531901 52.519445 l
378.81124 52.519445 l
382.090579 52.519445 l
385.369917 52.519445 l
388.649256 52.519445 l
391.928595 52.519445 l
395.207934 52.519445 l
398.487273 52.519445 l
stroke
grestore
0.549 0.337 0.294 setrgbcolor
gsave
357.1 266.1 57.6 38.02 clipbox
73.832727 52.390072 m
77.112066 52.519445 l
80.391405 52.519445 l
83.670744 52.519445 l
86.950083 52.519445 l
90.229421 52.519445 l
93.50876 52.519445 l
96.788099 52.519445 l
100.067438 52.519445 l
103.346777 52.519445 l
106.626116 52.519445 l
109.905455 52.519445 l
113.184793 52.519445 l
116.464132 52.519445 l
119.743471 52.519445 l
123.02281 52.519445 l
126.302149 52.519445 l
129.581488 52.519445 l
132.860826 52.519445 l
136.140165 52.519445 l
139.419504 52.519445 l
142.698843 52.519445 l
145.978182 52.519445 l
149.257521 52.519445 l
152.53686 52.519445 l
155.816198 52.519445 l
159.095537 52.519445 l
162.374876 52.519445 l
165.654215 52.519445 l
168.933554 52.519445 l
172.212893 52.519445 l
175.492231 52.519445 l
178.77157 52.519445 l
182.050909 52.519445 l
185.330248 52.519445 l
188.609587 52.519445 l
191.888926 52.519445 l
195.168264 52.519445 l
198.447603 52.519445 l
201.726942 52.519445 l
205.006281 52.519445 l
208.28562 52.519445 l
211.564959 52.519445 l
214.844298 52.519445 l
218.123636 52.519445 l
221.402975 52.519445 l
224.682314 52.519445 l
227.961653 52.519445 l
231.240992 52.519445 l
234.520331 52.519445 l
237.799669 52.519445 l
241.079008 52.519445 l
244.358347 52.519445 l
247.637686 52.519445 l
250.917025 52.519445 l
254.196364 52.519445 l
257.475702 52.519445 l
260.755041 52.519445 l
264.03438 52.519445 l
267.313719 52.519445 l
270.593058 52.519445 l
273.872397 52.519445 l
277.151736 52.519445 l
280.431074 52.519445 l
283.710413 52.519445 l
286.989752 52.519445 l
290.269091 52.519445 l
293.54843 52.519445 l
296.827769 52.519445 l
300.107107 52.519445 l
303.386446 52.519445 l
306.665785 52.519445 l
309.945124 52.519445 l
313.224463 52.519445 l
316.503802 52.519445 l
319.78314 52.519445 l
323.062479 52.519445 l
326.341818 52.519445 l
329.621157 52.519445 l
332.900496 52.519445 l
336.179835 52.519445 l
339.459174 52.519445 l
342.738512 52.519445 l
346.017851 52.519445 l
349.29719 52.519445 l
352.576529 52.519445 l
355.855868 52.519445 l
359.135207 52.519445 l
362.414545 52.519445 l
365.693884 52.519445 l
368.973223 52.519445 l
372.252562 52.519445 l
375.531901 52.519445 l
378.81124 52.519445 l
382.090579 52.519445 l
385.369917 52.519445 l
388.649256 52.519445 l
391.928595 52.519445 l
395.207934 52.519445 l
398.487273 52.519445 l
stroke
grestore
0.890 0.467 0.761 setrgbcolor
gsave
357.1 266.1 57.6 38.02 clipbox
73.832727 52.406947 m
77.112066 52.519445 l
80.391405 52.519445 l
83.670744 52.519445 l
86.950083 52.519445 l
90.229421 52.519445 l
93.50876 52.519445 l
96.788099 52.519445 l
100.067438 52.519445 l
103.346777 52.519445 l
106.626116 52.519445 l
109.905455 52.519445 l
113.184793 52.519445 l
116.464132 52.519445 l
119.743471 52.519445 l
123.02281 52.519445 l
126.302149 52.519445 l
129.581488 52.519445 l
132.860826 52.519445 l
136.140165 52.519445 l
139.419504 52.519445 l
142.698843 52.519445 l
145.978182 52.519445 l
149.257521 52.519445 l
152.53686 52.519445 l
155.816198 52.519445 l
159.095537 52.519445 l
162.374876 52.519445 l
165.654215 52.519445 l
168.933554 52.519445 l
172.212893 52.519445 l
175.492231 52.519445 l
178.77157 52.519445 l
182.050909 52.519445 l
185.330248 52.519445 l
188.609587 52.519445 l
191.888926 52.519445 l
195.168264 52.519445 l
198.447603 52.519445 l
201.726942 52.519445 l
205.006281 52.519445 l
208.28562 52.519445 l
211.564959 52.519445 l
214.844298 52.519445 l
218.123636 52.519445 l
221.402975 52.519445 l
224.682314 52.519445 l
227.961653 52.519445 l
231.240992 52.519445 l
234.520331 52.519445 l
237.799669 52.519445 l
241.079008 52.519445 l
244.358347 52.519445 l
247.637686 52.519445 l
250.917025 52.519445 l
254.196364 52.519445 l
257.475702 52.519445 l
260.755041 52.519445 l
264.03438 52.519445 l
267.313719 52.519445 l
270.593058 52.519445 l
273.872397 52.519445 l
277.151736 52.519445 l
280.431074 52.519445 l
283.710413 52.519445 l
286.989752 52.519445 l
290.269091 52.519445 l
293.54843 52.519445 l
296.827769 52.519445 l
300.107107 52.519445 l
303.386446 52.519445 l
306.665785 52.519445 l
309.945124 52.519445 l
313.224463 52.519445 l
316.503802 52.519445 l
319.78314 52.519445 l
323.062479 52.519445 l
326.341818 52.519445 l
329.621157 52.519445 l
332.900496 52.519445 l
336.179835 52.519445 l
339.459174 52.519445 l
342.738512 52.519445 l
346.017851 52.519445 l
349.29719 52.519445 l
352.576529 52.519445 l
355.855868 52.519445 l
359.135207 52.519445 l
362.414545 52.519445 l
365.693884 52.519445 l
368.973223 52.519445 l
372.252562 52.519445 l
375.531901 52.519445 l
378.81124 52.519445 l
382.090579 52.519445 l
385.369917 52.519445 l
388.649256 52.519445 l
391.928595 52.519445 l
395.207934 52.519445 l
398.487273 52.519445 l
stroke
grestore
0.498 setgray
gsave
357.1 266.1 57.6 38.02 clipbox
73.832727 52.165077 m
77.112066 52.519445 l
80.391405 52.519445 l
83.670744 52.519445 l
86.950083 52.519445 l
90.229421 52.519445 l
93.50876 52.519445 l
96.788099 52.519445 l
100.067438 52.519445 l
103.346777 52.519445 l
106.626116 52.519445 l
109.905455 52.519445 l
113.184793 52.519445 l
116.464132 52.519445 l
119.743471 52.519445 l
123.02281 52.519445 l
126.302149 52.519445 l
129.581488 52.519445 l
132.860826 52.519445 l
136.140165 52.519445 l
139.419504 52.519445 l
142.698843 52.519445 l
145.978182 52.519445 l
149.257521 52.519445 l
152.53686 52.519445 l
155.816198 52.519445 l
159.095537 52.519445 l
162.374876 52.519445 l
165.654215 52.519445 l
168.933554 52.519445 l
172.212893 52.519445 l
175.492231 52.519445 l
178.77157 52.519445 l
182.050909 52.519445 l
185.330248 52.519445 l
188.609587 52.519445 l
191.888926 52.519445 l
195.168264 52.519445 l
198.447603 52.519445 l
201.726942 52.519445 l
205.006281 52.519445 l
208.28562 52.519445 l
211.564959 52.519445 l
214.844298 52.519445 l
218.123636 52.519445 l
221.402975 52.519445 l
224.682314 52.519445 l
227.961653 52.519445 l
231.240992 52.519445 l
234.520331 52.519445 l
237.799669 52.519445 l
241.079008 52.519445 l
244.358347 52.519445 l
247.637686 52.519445 l
250.917025 52.519445 l
254.196364 52.519445 l
257.475702 52.519445 l
260.755041 52.519445 l
264.03438 52.519445 l
267.313719 52.519445 l
270.593058 52.519445 l
273.872397 52.519445 l
277.151736 52.519445 l
280.431074 52.519445 l
283.710413 52.519445 l
286.989752 52.519445 l
290.269091 52.519445 l
293.54843 52.519445 l
296.827769 52.519445 l
300.107107 52.519445 l
303.386446 52.519445 l
306.665785 52.519445 l
309.945124 52.519445 l
313.224463 52.519445 l
316.503802 52.519445 l
319.78314 52.519445 l
323.062479 52.519445 l
326.341818 52.519445 l
329.621157 52.519445 l
332.900496 52.519445 l
336.179835 52.519445 l
339.459174 52.519445 l
342.738512 52.519445 l
346.017851 52.519445 l
349.29719 52.519445 l
352.576529 52.519445 l
355.855868 52.519445 l
359.135207 52.519445 l
362.414545 52.519445 l
365.693884 52.519445 l
368.973223 52.519445 l
372.252562 52.519445 l
375.531901 52.519445 l
378.81124 52.519445 l
382.090579 52.519445 l
385.369917 52.519445 l
388.649256 52.519445 l
391.928595 52.519445 l
395.207934 52.519445 l
398.487273 52.519445 l
stroke
grestore
0.737 0.741 0.133 setrgbcolor
gsave
357.1 266.1 57.6 38.02 clipbox
73.832727 52.418196 m
77.112066 52.519445 l
80.391405 52.519445 l
83.670744 52.519445 l
86.950083 52.519445 l
90.229421 52.519445 l
93.50876 52.519445 l
96.788099 52.519445 l
100.067438 52.519445 l
103.346777 52.519445 l
106.626116 52.519445 l
109.905455 52.519445 l
113.184793 52.519445 l
116.464132 52.519445 l
119.743471 52.519445 l
123.02281 52.519445 l
126.302149 52.519445 l
129.581488 52.519445 l
132.860826 52.519445 l
136.140165 52.519445 l
139.419504 52.519445 l
142.698843 52.519445 l
145.978182 52.519445 l
149.257521 52.519445 l
152.53686 52.519445 l
155.816198 52.519445 l
159.095537 52.519445 l
162.374876 52.519445 l
165.654215 52.519445 l
168.933554 52.519445 l
172.212893 52.519445 l
175.492231 52.519445 l
178.77157 52.519445 l
182.050909 52.519445 l
185.330248 52.519445 l
188.609587 52.519445 l
191.888926 52.519445 l
195.168264 52.519445 l
198.447603 52.519445 l
201.726942 52.519445 l
205.006281 52.519445 l
208.28562 52.519445 l
211.564959 52.519445 l
214.844298 52.519445 l
218.123636 52.519445 l
221.402975 52.519445 l
224.682314 52.519445 l
227.961653 52.519445 l
231.240992 52.519445 l
234.520331 52.519445 l
237.799669 52.519445 l
241.079008 52.519445 l
244.358347 52.519445 l
247.637686 52.519445 l
250.917025 52.519445 l
254.196364 52.519445 l
257.475702 52.519445 l
260.755041 52.519445 l
264.03438 52.519445 l
267.313719 52.519445 l
270.593058 52.519445 l
273.872397 52.519445 l
277.151736 52.519445 l
280.431074 52.519445 l
283.710413 52.519445 l
286.989752 52.519445 l
290.269091 52.519445 l
293.54843 52.519445 l
296.827769 52.519445 l
300.107107 52.519445 l
303.386446 52.519445 l
306.665785 52.519445 l
309.945124 52.519445 l
313.224463 52.519445 l
316.503802 52.519445 l
319.78314 52.519445 l
323.062479 52.519445 l
326.341818 52.519445 l
329.621157 52.519445 l
332.900496 52.519445 l
336.179835 52.519445 l
339.459174 52.519445 l
342.738512 52.519445 l
346.017851 52.519445 l
349.29719 52.519445 l
352.576529 52.519445 l
355.855868 52.519445 l
359.135207 52.519445 l
362.414545 52.519445 l
365.693884 52.519445 l
368.973223 52.519445 l
372.252562 52.519445 l
375.531901 52.519445 l
378.81124 52.519445 l
382.090579 52.519445 l
385.369917 52.519445 l
388.649256 52.519445 l
391.928595 52.519445 l
395.207934 52.519445 l
398.487273 52.519445 l
stroke
grestore
0.090 0.745 0.812 setrgbcolor
gsave
357.1 266.1 57.6 38.02 clipbox
73.832727 70.260282 m
77.112066 76.05952 l
80.391405 127.088338 l
83.670744 157.496374 l
86.950083 152.917732 l
90.229421 155.544549 l
93.50876 156.798893 l
96.788099 158.328859 l
100.067438 157.980126 l
103.346777 158.131995 l
106.626116 158.902602 l
109.905455 157.558251 l
113.184793 158.520107 l
116.464132 161.923155 l
119.743471 170.804816 l
123.02281 171.372927 l
126.302149 171.687929 l
129.581488 172.121037 l
132.860826 172.413541 l
136.140165 172.55416 l
139.419504 172.644152 l
142.698843 173.184148 l
145.978182 173.009766 l
149.257521 173.808504 l
152.53686 172.835399 l
155.816198 172.143534 l
159.095537 173.296638 l
162.374876 173.049145 l
165.654215 172.886028 l
168.933554 173.988503 l
172.212893 172.52603 l
175.492231 172.616021 l
178.77157 172.857897 l
182.050909 173.285389 l
185.330248 173.319135 l
188.609587 172.571026 l
191.888926 174.17975 l
195.168264 173.791622 l
198.447603 173.454139 l
201.726942 173.791622 l
205.006281 174.382231 l
208.28562 173.229144 l
211.564959 173.639754 l
214.844298 173.004149 l
218.123636 173.988503 l
221.402975 173.476636 l
224.682314 174.050364 l
227.961653 172.677898 l
231.240992 173.892879 l
234.520331 172.846648 l
237.799669 174.016617 l
241.079008 173.13352 l
244.358347 173.729745 l
247.637686 172.520414 l
250.917025 173.74101 l
254.196364 174.697233 l
257.475702 173.724129 l
260.755041 173.30227 l
264.03438 173.566628 l
267.313719 173.268507 l
270.593058 174.039115 l
273.872397 174.415994 l
277.151736 173.167267 l
280.431074 173.459755 l
283.710413 172.824151 l
286.989752 173.195397 l
290.269091 172.987268 l
293.54843 173.437257 l
296.827769 174.29224 l
300.107107 174.12349 l
303.386446 174.106624 l
306.665785 173.229144 l
309.945124 173.088524 l
313.224463 173.628505 l
316.503802 173.752259 l
319.78314 172.599156 l
323.062479 173.606007 l
326.341818 173.44289 l
329.621157 172.244791 l
332.900496 173.920993 l
336.179835 174.455357 l
339.459174 173.999752 l
342.738512 172.104171 l
346.017851 172.756657 l
349.29719 173.639754 l
352.576529 173.904128 l
355.855868 172.739776 l
359.135207 174.185367 l
362.414545 173.291021 l
365.693884 173.988503 l
368.973223 171.64855 l
372.252562 173.341633 l
375.531901 173.904128 l
378.81124 172.683531 l
382.090579 173.482253 l
385.369917 173.23476 l
388.649256 174.635356 l
391.928595 173.246009 l
395.207934 172.604772 l
398.487273 173.094141 l
stroke
grestore
0.800 setlinewidth
0 setlinejoin
0.000 setgray
gsave
57.6 38.016 m
57.6 304.128 l
stroke
grestore
gsave
414.72 38.016 m
414.72 304.128 l
stroke
grestore
gsave
57.6 38.016 m
414.72 38.016 l
stroke
grestore
gsave
57.6 304.128 m
414.72 304.128 l
stroke
grestore
1.000 setlinewidth
0 setlinecap
0.800 setgray
gsave
284.548125 95.79075 m
407.72 95.79075 l
409.053333 95.79075 409.72 96.457417 409.72 97.79075 c
409.72 244.35325 l
409.72 245.686583 409.053333 246.35325 407.72 246.35325 c
284.548125 246.35325 l
283.214792 246.35325 282.548125 245.686583 282.548125 244.35325 c
282.548125 97.79075 l
282.548125 96.457417 283.214792 95.79075 284.548125 95.79075 c
cl
gsave
1.000 setgray
fill
grestore
stroke
grestore
1.500 setlinewidth
1 setlinejoin
2 setlinecap
0.122 0.467 0.706 setrgbcolor
gsave
286.548125 238.2595 m
306.548125 238.2595 l
stroke
grestore
0.000 setgray
gsave
314.548125 234.759500 translate
0.000000 rotate
0.000000 0 m /m glyphshow
9.741211 0 m /o glyphshow
15.859375 0 m /d glyphshow
22.207031 0 m /e glyphshow
28.359375 0 m /l glyphshow
31.137695 0 m /one glyphshow
37.500000 0 m /underscore glyphshow
42.500000 0 m /one glyphshow
grestore
1.000 0.498 0.055 setrgbcolor
gsave
286.548125 223.306375 m
306.548125 223.306375 l
stroke
grestore
0.000 setgray
gsave
314.548125 219.806375 translate
0.000000 rotate
0.000000 0 m /m glyphshow
9.741211 0 m /o glyphshow
15.859375 0 m /d glyphshow
22.207031 0 m /e glyphshow
28.359375 0 m /l glyphshow
31.137695 0 m /one glyphshow
37.500000 0 m /underscore glyphshow
42.500000 0 m /two glyphshow
48.862305 0 m /five glyphshow
55.224609 0 m /six glyphshow
grestore
0.173 0.627 0.173 setrgbcolor
gsave
286.548125 208.35325 m
306.548125 208.35325 l
stroke
grestore
0.000 setgray
gsave
314.548125 204.853250 translate
0.000000 rotate
0.000000 0 m /m glyphshow
9.741211 0 m /o glyphshow
15.859375 0 m /d glyphshow
22.207031 0 m /e glyphshow
28.359375 0 m /l glyphshow
31.137695 0 m /one glyphshow
37.500000 0 m /underscore glyphshow
42.500000 0 m /f glyphshow
46.020508 0 m /u glyphshow
52.358398 0 m /l glyphshow
55.136719 0 m /l glyphshow
57.915039 0 m /underscore glyphshow
62.915039 0 m /b glyphshow
69.262695 0 m /a glyphshow
75.390625 0 m /t glyphshow
79.311523 0 m /c glyphshow
84.809570 0 m /h glyphshow
grestore
0.839 0.153 0.157 setrgbcolor
gsave
286.548125 193.400125 m
306.548125 193.400125 l
stroke
grestore
0.000 setgray
gsave
314.548125 189.900125 translate
0.000000 rotate
0.000000 0 m /m glyphshow
9.741211 0 m /o glyphshow
15.859375 0 m /d glyphshow
22.207031 0 m /e glyphshow
28.359375 0 m /l glyphshow
31.137695 0 m /two glyphshow
grestore
0.580 0.404 0.741 setrgbcolor
gsave
286.548125 178.72825 m
306.548125 178.72825 l
stroke
grestore
0.000 setgray
gsave
314.548125 175.228250 translate
0.000000 rotate
0.000000 0 m /m glyphshow
9.741211 0 m /o glyphshow
15.859375 0 m /d glyphshow
22.207031 0 m /e glyphshow
28.359375 0 m /l glyphshow
31.137695 0 m /three glyphshow
grestore
0.549 0.337 0.294 setrgbcolor
gsave
286.548125 164.056375 m
306.548125 164.056375 l
stroke
grestore
0.000 setgray
gsave
314.548125 160.556375 translate
0.000000 rotate
0.000000 0 m /m glyphshow
9.741211 0 m /o glyphshow
15.859375 0 m /d glyphshow
22.207031 0 m /e glyphshow
28.359375 0 m /l glyphshow
31.137695 0 m /four glyphshow
grestore
0.890 0.467 0.761 setrgbcolor
gsave
286.548125 149.3845 m
306.548125 149.3845 l
stroke
grestore
0.000 setgray
gsave
314.548125 145.884500 translate
0.000000 rotate
0.000000 0 m /m glyphshow
9.741211 0 m /o glyphshow
15.859375 0 m /d glyphshow
22.207031 0 m /e glyphshow
28.359375 0 m /l glyphshow
31.137695 0 m /five glyphshow
grestore
0.498 setgray
gsave
286.548125 134.712625 m
306.548125 134.712625 l
stroke
grestore
0.000 setgray
gsave
314.548125 131.212625 translate
0.000000 rotate
0.000000 0 m /m glyphshow
9.741211 0 m /o glyphshow
15.859375 0 m /d glyphshow
22.207031 0 m /e glyphshow
28.359375 0 m /l glyphshow
31.137695 0 m /six glyphshow
grestore
0.737 0.741 0.133 setrgbcolor
gsave
286.548125 120.04075 m
306.548125 120.04075 l
stroke
grestore
0.000 setgray
gsave
314.548125 116.540750 translate
0.000000 rotate
0.000000 0 m /m glyphshow
9.741211 0 m /o glyphshow
15.859375 0 m /d glyphshow
22.207031 0 m /e glyphshow
28.359375 0 m /l glyphshow
31.137695 0 m /seven glyphshow
grestore
0.090 0.745 0.812 setrgbcolor
gsave
286.548125 105.368875 m
306.548125 105.368875 l
stroke
grestore
0.000 setgray
gsave
314.548125 101.868875 translate
0.000000 rotate
0.000000 0 m /m glyphshow
9.741211 0 m /o glyphshow
15.859375 0 m /d glyphshow
22.207031 0 m /e glyphshow
28.359375 0 m /l glyphshow
31.137695 0 m /eight glyphshow
grestore

end
showpage
